%!PS-Adobe-3.0
%%Creator: PCBNEW
%%CreationDate: Sun Sep 26 20:47:42 2021
%%Title: /home/suhas/hello/msc/fpga-on-usbport/hardware/gerberfiles/fpga-on-usbport-in2-back-drl_map.ps
%%Pages: 1
%%PageOrder: Ascend
%%BoundingBox: 0 0 596 842
%%DocumentMedia: A4 595 842 0 () ()
%%Orientation: Landscape
%%EndComments
%%BeginProlog
/line { newpath moveto lineto stroke } bind def
/cir0 { newpath 0 360 arc stroke } bind def
/cir1 { newpath 0 360 arc gsave fill grestore stroke } bind def
/cir2 { newpath 0 360 arc gsave fill grestore stroke } bind def
/arc0 { newpath arc stroke } bind def
/arc1 { newpath 4 index 4 index moveto arc closepath gsave fill
    grestore stroke } bind def
/arc2 { newpath 4 index 4 index moveto arc closepath gsave fill
    grestore stroke } bind def
/poly0 { stroke } bind def
/poly1 { closepath gsave fill grestore stroke } bind def
/poly2 { closepath gsave fill grestore stroke } bind def
/rect0 { rectstroke } bind def
/rect1 { rectfill } bind def
/rect2 { rectfill } bind def
/linemode0 { 0 setlinecap 0 setlinejoin 0 setlinewidth } bind def
/linemode1 { 1 setlinecap 1 setlinejoin } bind def
/dashedline { [200] 100 setdash } bind def
/solidline { [] 0 setdash } bind def
/phantomshow { moveto
    /KicadFont findfont 0.000001 scalefont setfont
    show } bind def
/textshow { gsave
    findfont exch scalefont setfont concat 1 scale 0 0 moveto show
    } bind def
/reencodefont {
  findfont dup length dict begin
  { 1 index /FID ne
    { def }
    { pop pop } ifelse
  } forall
  /Encoding ISOLatin1Encoding def
  currentdict
  end } bind def
/KicadFont /Helvetica reencodefont definefont pop
/KicadFont-Bold /Helvetica-Bold reencodefont definefont pop
/KicadFont-Oblique /Helvetica-Oblique reencodefont definefont pop
/KicadFont-BoldOblique /Helvetica-BoldOblique reencodefont definefont pop
%%EndProlog
%%Page: 1 1
%%BeginPageSetup
gsave
0.0072 0.0072 scale
linemode1
82680 0 translate 90 rotate
150 setlinewidth
%%EndPageSetup
0 0 0 setrgbcolor
11.811 setlinewidth
64606.7 56872.1 708.661 180 360 arc0
0 0 0 setrgbcolor
64606.7 58879.9 708.661 -0 180 arc0
0 0 0 setrgbcolor
63898.1 57876 1003.94 -270 -90 arc0
0 0 0 setrgbcolor
59.0551 setlinewidth
63396.1 52324.8 944.882 -0 180 arc0
0 0 0 setrgbcolor
newpath
64341 52324.8 moveto
65551.6 52324.8 lineto
stroke
0 0 0 setrgbcolor
11.811 setlinewidth
newpath
65315.4 58879.9 moveto
65315.4 56872.1 lineto
stroke
0 0 0 setrgbcolor
59.0551 setlinewidth
51378.4 62836.6 590.551 90 180 arc0
0 0 0 setrgbcolor
51378.4 52915.4 590.551 -180 -90 arc0
0 0 0 setrgbcolor
newpath
50787.8 62836.6 moveto
50787.8 52915.4 lineto
stroke
0 0 0 setrgbcolor
newpath
65551.6 63427.2 moveto
51378.4 63427.2 lineto
stroke
0 0 0 setrgbcolor
newpath
51378.4 52324.8 moveto
62451.2 52324.8 lineto
stroke
0 0 0 setrgbcolor
newpath
66142.2 57876 moveto
66142.2 58029.5 lineto
stroke
0 0 0 setrgbcolor
newpath
66142.2 58029.5 moveto
66142.2 58194.9 lineto
stroke
0 0 0 setrgbcolor
newpath
66142.2 58194.9 moveto
66142.2 58348.4 lineto
stroke
0 0 0 setrgbcolor
newpath
66142.2 58348.4 moveto
66142.2 58513.8 lineto
stroke
0 0 0 setrgbcolor
newpath
66142.2 58513.8 moveto
66130.4 58667.3 lineto
stroke
0 0 0 setrgbcolor
newpath
66130.4 58667.3 moveto
66130.4 58832.7 lineto
stroke
0 0 0 setrgbcolor
newpath
66130.4 58832.7 moveto
66130.4 58986.2 lineto
stroke
0 0 0 setrgbcolor
newpath
66130.4 58986.2 moveto
66118.5 59139.8 lineto
stroke
0 0 0 setrgbcolor
newpath
66118.5 59139.8 moveto
66118.5 59305.1 lineto
stroke
0 0 0 setrgbcolor
newpath
66118.5 59305.1 moveto
66106.7 59458.7 lineto
stroke
0 0 0 setrgbcolor
newpath
66106.7 59458.7 moveto
66094.9 59612.2 lineto
stroke
0 0 0 setrgbcolor
newpath
66094.9 59612.2 moveto
66094.9 59765.8 lineto
stroke
0 0 0 setrgbcolor
newpath
66094.9 59765.8 moveto
66083.1 59919.3 lineto
stroke
0 0 0 setrgbcolor
newpath
66083.1 59919.3 moveto
66071.3 60061 lineto
stroke
0 0 0 setrgbcolor
newpath
66071.3 60061 moveto
66059.5 60214.6 lineto
stroke
0 0 0 setrgbcolor
newpath
66059.5 60214.6 moveto
66047.7 60356.3 lineto
stroke
0 0 0 setrgbcolor
newpath
66047.7 60356.3 moveto
66035.9 60509.9 lineto
stroke
0 0 0 setrgbcolor
newpath
66035.9 60509.9 moveto
66024.1 60651.6 lineto
stroke
0 0 0 setrgbcolor
newpath
66024.1 60651.6 moveto
66012.2 60793.3 lineto
stroke
0 0 0 setrgbcolor
newpath
66012.2 60793.3 moveto
66000.4 60935.1 lineto
stroke
0 0 0 setrgbcolor
newpath
66000.4 60935.1 moveto
65988.6 61076.8 lineto
stroke
0 0 0 setrgbcolor
newpath
65988.6 61076.8 moveto
65976.8 61218.5 lineto
stroke
0 0 0 setrgbcolor
newpath
65976.8 61218.5 moveto
65953.2 61348.4 lineto
stroke
0 0 0 setrgbcolor
newpath
65953.2 61348.4 moveto
65941.4 61490.2 lineto
stroke
0 0 0 setrgbcolor
newpath
65941.4 61490.2 moveto
65929.6 61620.1 lineto
stroke
0 0 0 setrgbcolor
newpath
65929.6 61620.1 moveto
65905.9 61750 lineto
stroke
0 0 0 setrgbcolor
newpath
65905.9 61750 moveto
65894.1 61868.1 lineto
stroke
0 0 0 setrgbcolor
newpath
65894.1 61868.1 moveto
65870.5 61998 lineto
stroke
0 0 0 setrgbcolor
newpath
65870.5 61998 moveto
65858.7 62116.2 lineto
stroke
0 0 0 setrgbcolor
newpath
65858.7 62116.2 moveto
65835.1 62234.3 lineto
stroke
0 0 0 setrgbcolor
newpath
65835.1 62234.3 moveto
65811.5 62352.4 lineto
stroke
0 0 0 setrgbcolor
newpath
65811.5 62352.4 moveto
65799.6 62470.5 lineto
stroke
0 0 0 setrgbcolor
newpath
65799.6 62470.5 moveto
65776 62576.8 lineto
stroke
0 0 0 setrgbcolor
newpath
65776 62576.8 moveto
65752.4 62694.9 lineto
stroke
0 0 0 setrgbcolor
newpath
65752.4 62694.9 moveto
65728.8 62789.4 lineto
stroke
0 0 0 setrgbcolor
newpath
65728.8 62789.4 moveto
65705.2 62895.7 lineto
stroke
0 0 0 setrgbcolor
newpath
65705.2 62895.7 moveto
65693.3 63002 lineto
stroke
0 0 0 setrgbcolor
newpath
65693.3 63002 moveto
65669.7 63096.5 lineto
stroke
0 0 0 setrgbcolor
newpath
65669.7 63096.5 moveto
65646.1 63191 lineto
stroke
0 0 0 setrgbcolor
newpath
65646.1 63191 moveto
65622.5 63273.6 lineto
stroke
0 0 0 setrgbcolor
newpath
65622.5 63273.6 moveto
65587 63368.1 lineto
stroke
0 0 0 setrgbcolor
newpath
65587 63368.1 moveto
65551.6 63427.2 lineto
stroke
0 0 0 setrgbcolor
newpath
65551.6 52324.8 moveto
65587 52383.9 lineto
stroke
0 0 0 setrgbcolor
newpath
65587 52383.9 moveto
65622.5 52478.4 lineto
stroke
0 0 0 setrgbcolor
newpath
65622.5 52478.4 moveto
65646.1 52561 lineto
stroke
0 0 0 setrgbcolor
newpath
65646.1 52561 moveto
65669.7 52655.5 lineto
stroke
0 0 0 setrgbcolor
newpath
65669.7 52655.5 moveto
65693.3 52750 lineto
stroke
0 0 0 setrgbcolor
newpath
65693.3 52750 moveto
65705.2 52856.3 lineto
stroke
0 0 0 setrgbcolor
newpath
65705.2 52856.3 moveto
65728.8 52962.6 lineto
stroke
0 0 0 setrgbcolor
newpath
65728.8 52962.6 moveto
65752.4 53057.1 lineto
stroke
0 0 0 setrgbcolor
newpath
65752.4 53057.1 moveto
65776 53175.2 lineto
stroke
0 0 0 setrgbcolor
newpath
65776 53175.2 moveto
65799.6 53281.5 lineto
stroke
0 0 0 setrgbcolor
newpath
65799.6 53281.5 moveto
65811.5 53399.6 lineto
stroke
0 0 0 setrgbcolor
newpath
65811.5 53399.6 moveto
65835.1 53517.7 lineto
stroke
0 0 0 setrgbcolor
newpath
65835.1 53517.7 moveto
65858.7 53635.8 lineto
stroke
0 0 0 setrgbcolor
newpath
65858.7 53635.8 moveto
65870.5 53754 lineto
stroke
0 0 0 setrgbcolor
newpath
65870.5 53754 moveto
65894.1 53883.9 lineto
stroke
0 0 0 setrgbcolor
newpath
65894.1 53883.9 moveto
65905.9 54002 lineto
stroke
0 0 0 setrgbcolor
newpath
65905.9 54002 moveto
65929.6 54131.9 lineto
stroke
0 0 0 setrgbcolor
newpath
65929.6 54131.9 moveto
65941.4 54261.8 lineto
stroke
0 0 0 setrgbcolor
newpath
65941.4 54261.8 moveto
65953.2 54403.6 lineto
stroke
0 0 0 setrgbcolor
newpath
65953.2 54403.6 moveto
65976.8 54533.5 lineto
stroke
0 0 0 setrgbcolor
newpath
65976.8 54533.5 moveto
65988.6 54675.2 lineto
stroke
0 0 0 setrgbcolor
newpath
65988.6 54675.2 moveto
66000.4 54816.9 lineto
stroke
0 0 0 setrgbcolor
newpath
66000.4 54816.9 moveto
66012.2 54958.7 lineto
stroke
0 0 0 setrgbcolor
newpath
66012.2 54958.7 moveto
66024.1 55100.4 lineto
stroke
0 0 0 setrgbcolor
newpath
66024.1 55100.4 moveto
66035.9 55242.1 lineto
stroke
0 0 0 setrgbcolor
newpath
66035.9 55242.1 moveto
66047.7 55395.7 lineto
stroke
0 0 0 setrgbcolor
newpath
66047.7 55395.7 moveto
66059.5 55537.4 lineto
stroke
0 0 0 setrgbcolor
newpath
66059.5 55537.4 moveto
66071.3 55691 lineto
stroke
0 0 0 setrgbcolor
newpath
66071.3 55691 moveto
66083.1 55832.7 lineto
stroke
0 0 0 setrgbcolor
newpath
66083.1 55832.7 moveto
66094.9 55986.2 lineto
stroke
0 0 0 setrgbcolor
newpath
66094.9 55986.2 moveto
66094.9 56139.8 lineto
stroke
0 0 0 setrgbcolor
newpath
66094.9 56139.8 moveto
66106.7 56293.3 lineto
stroke
0 0 0 setrgbcolor
newpath
66106.7 56293.3 moveto
66118.5 56446.9 lineto
stroke
0 0 0 setrgbcolor
newpath
66118.5 56446.9 moveto
66118.5 56612.2 lineto
stroke
0 0 0 setrgbcolor
newpath
66118.5 56612.2 moveto
66130.4 56765.8 lineto
stroke
0 0 0 setrgbcolor
newpath
66130.4 56765.8 moveto
66130.4 56919.3 lineto
stroke
0 0 0 setrgbcolor
newpath
66130.4 56919.3 moveto
66130.4 57084.7 lineto
stroke
0 0 0 setrgbcolor
newpath
66130.4 57084.7 moveto
66142.2 57238.2 lineto
stroke
0 0 0 setrgbcolor
newpath
66142.2 57238.2 moveto
66142.2 57403.6 lineto
stroke
0 0 0 setrgbcolor
newpath
66142.2 57403.6 moveto
66142.2 57557.1 lineto
stroke
0 0 0 setrgbcolor
newpath
66142.2 57557.1 moveto
66142.2 57722.5 lineto
stroke
0 0 0 setrgbcolor
newpath
66142.2 57722.5 moveto
66142.2 57876 lineto
stroke
78.7394 setlinewidth
newpath
50994.5 53122.1 moveto
51112.6 53004 lineto
stroke
newpath
51112.6 53122.1 moveto
50994.5 53004 lineto
stroke
newpath
51053.6 54185.1 moveto
51171.7 54066.9 lineto
stroke
newpath
51171.7 54185.1 moveto
51053.6 54066.9 lineto
stroke
newpath
51053.6 53948.8 moveto
51171.7 53830.7 lineto
stroke
newpath
51171.7 53948.8 moveto
51053.6 53830.7 lineto
stroke
newpath
51053.6 53653.6 moveto
51171.7 53535.4 lineto
stroke
newpath
51171.7 53653.6 moveto
51053.6 53535.4 lineto
stroke
newpath
51053.6 53417.3 moveto
51171.7 53299.2 lineto
stroke
newpath
51171.7 53417.3 moveto
51053.6 53299.2 lineto
stroke
newpath
51112.6 52767.7 moveto
51230.7 52649.6 lineto
stroke
newpath
51230.7 52767.7 moveto
51112.6 52649.6 lineto
stroke
newpath
51171.7 53122.1 moveto
51289.8 53004 lineto
stroke
newpath
51289.8 53122.1 moveto
51171.7 53004 lineto
stroke
newpath
51230.7 56576.8 moveto
51348.9 56458.7 lineto
stroke
newpath
51348.9 56576.8 moveto
51230.7 56458.7 lineto
stroke
newpath
51260.3 55927.2 moveto
51378.4 55809.1 lineto
stroke
newpath
51378.4 55927.2 moveto
51260.3 55809.1 lineto
stroke
newpath
51455.2 62488.2 moveto
51573.3 62370.1 lineto
stroke
newpath
51573.3 62488.2 moveto
51455.2 62370.1 lineto
stroke
newpath
51467 60208.7 moveto
51585.1 60090.6 lineto
stroke
newpath
51585.1 60208.7 moveto
51467 60090.6 lineto
stroke
newpath
51526 57964.6 moveto
51644.1 57846.5 lineto
stroke
newpath
51644.1 57964.6 moveto
51526 57846.5 lineto
stroke
newpath
51526 57226.4 moveto
51644.1 57108.3 lineto
stroke
newpath
51644.1 57226.4 moveto
51526 57108.3 lineto
stroke
newpath
51644.1 59883.9 moveto
51762.2 59765.8 lineto
stroke
newpath
51762.2 59883.9 moveto
51644.1 59765.8 lineto
stroke
newpath
51750.4 62582.7 moveto
51868.5 62464.6 lineto
stroke
newpath
51868.5 62582.7 moveto
51750.4 62464.6 lineto
stroke
newpath
51762.2 54214.6 moveto
51880.4 54096.5 lineto
stroke
newpath
51880.4 54214.6 moveto
51762.2 54096.5 lineto
stroke
newpath
52087 54450.8 moveto
52205.2 54332.7 lineto
stroke
newpath
52205.2 54450.8 moveto
52087 54332.7 lineto
stroke
newpath
52116.6 52826.8 moveto
52234.7 52708.7 lineto
stroke
newpath
52234.7 52826.8 moveto
52116.6 52708.7 lineto
stroke
newpath
52293.7 56281.5 moveto
52411.9 56163.4 lineto
stroke
newpath
52411.9 56281.5 moveto
52293.7 56163.4 lineto
stroke
newpath
52305.6 56074.8 moveto
52423.7 55956.7 lineto
stroke
newpath
52423.7 56074.8 moveto
52305.6 55956.7 lineto
stroke
newpath
52411.9 60061 moveto
52530 59942.9 lineto
stroke
newpath
52530 60061 moveto
52411.9 59942.9 lineto
stroke
newpath
52411.9 58992.1 moveto
52530 58874 lineto
stroke
newpath
52530 58992.1 moveto
52411.9 58874 lineto
stroke
newpath
52423.7 55236.2 moveto
52541.8 55118.1 lineto
stroke
newpath
52541.8 55236.2 moveto
52423.7 55118.1 lineto
stroke
newpath
52470.9 56399.6 moveto
52589 56281.5 lineto
stroke
newpath
52589 56399.6 moveto
52470.9 56281.5 lineto
stroke
newpath
52530 52797.3 moveto
52648.1 52679.1 lineto
stroke
newpath
52648.1 52797.3 moveto
52530 52679.1 lineto
stroke
newpath
52648.1 60002 moveto
52766.2 59883.9 lineto
stroke
newpath
52766.2 60002 moveto
52648.1 59883.9 lineto
stroke
newpath
52825.2 62187 moveto
52943.3 62068.9 lineto
stroke
newpath
52943.3 62187 moveto
52825.2 62068.9 lineto
stroke
newpath
52884.3 60385.8 moveto
53002.4 60267.7 lineto
stroke
newpath
53002.4 60385.8 moveto
52884.3 60267.7 lineto
stroke
newpath
53061.5 62364.2 moveto
53179.6 62246.1 lineto
stroke
newpath
53179.6 62364.2 moveto
53061.5 62246.1 lineto
stroke
newpath
53061.5 61891.7 moveto
53179.6 61773.6 lineto
stroke
newpath
53179.6 61891.7 moveto
53061.5 61773.6 lineto
stroke
newpath
53061.5 60651.6 moveto
53179.6 60533.5 lineto
stroke
newpath
53179.6 60651.6 moveto
53061.5 60533.5 lineto
stroke
newpath
53061.5 60120.1 moveto
53179.6 60002 lineto
stroke
newpath
53179.6 60120.1 moveto
53061.5 60002 lineto
stroke
newpath
53120.5 58673.2 moveto
53238.6 58555.1 lineto
stroke
newpath
53238.6 58673.2 moveto
53120.5 58555.1 lineto
stroke
newpath
53238.6 55691 moveto
53356.7 55572.9 lineto
stroke
newpath
53356.7 55691 moveto
53238.6 55572.9 lineto
stroke
newpath
53297.7 62187 moveto
53415.8 62068.9 lineto
stroke
newpath
53415.8 62187 moveto
53297.7 62068.9 lineto
stroke
newpath
53297.7 60415.4 moveto
53415.8 60297.3 lineto
stroke
newpath
53415.8 60415.4 moveto
53297.7 60297.3 lineto
stroke
newpath
53356.7 55218.5 moveto
53474.8 55100.4 lineto
stroke
newpath
53474.8 55218.5 moveto
53356.7 55100.4 lineto
stroke
newpath
53415.8 59942.9 moveto
53533.9 59824.8 lineto
stroke
newpath
53533.9 59942.9 moveto
53415.8 59824.8 lineto
stroke
newpath
53474.8 61714.6 moveto
53593 61596.5 lineto
stroke
newpath
53593 61714.6 moveto
53474.8 61596.5 lineto
stroke
newpath
53474.8 55395.7 moveto
53593 55277.6 lineto
stroke
newpath
53593 55395.7 moveto
53474.8 55277.6 lineto
stroke
newpath
53486.7 62618.1 moveto
53604.8 62500 lineto
stroke
newpath
53604.8 62618.1 moveto
53486.7 62500 lineto
stroke
newpath
53533.9 53417.3 moveto
53652 53299.2 lineto
stroke
newpath
53652 53417.3 moveto
53533.9 53299.2 lineto
stroke
newpath
53593 60061 moveto
53711.1 59942.9 lineto
stroke
newpath
53711.1 60061 moveto
53593 59942.9 lineto
stroke
newpath
53593 56133.9 moveto
53711.1 56015.8 lineto
stroke
newpath
53711.1 56133.9 moveto
53593 56015.8 lineto
stroke
newpath
53593 55956.7 moveto
53711.1 55838.6 lineto
stroke
newpath
53711.1 55956.7 moveto
53593 55838.6 lineto
stroke
newpath
53652 61891.7 moveto
53770.1 61773.6 lineto
stroke
newpath
53770.1 61891.7 moveto
53652 61773.6 lineto
stroke
newpath
53652 55218.5 moveto
53770.1 55100.4 lineto
stroke
newpath
53770.1 55218.5 moveto
53652 55100.4 lineto
stroke
newpath
53687.4 62523.6 moveto
53805.6 62405.5 lineto
stroke
newpath
53805.6 62523.6 moveto
53687.4 62405.5 lineto
stroke
newpath
53711.1 53594.5 moveto
53829.2 53476.4 lineto
stroke
newpath
53829.2 53594.5 moveto
53711.1 53476.4 lineto
stroke
newpath
53770.1 59942.9 moveto
53888.2 59824.8 lineto
stroke
newpath
53888.2 59942.9 moveto
53770.1 59824.8 lineto
stroke
newpath
54213 57285.4 moveto
54331.1 57167.3 lineto
stroke
newpath
54331.1 57285.4 moveto
54213 57167.3 lineto
stroke
newpath
54272.1 55366.2 moveto
54390.2 55248 lineto
stroke
newpath
54390.2 55366.2 moveto
54272.1 55248 lineto
stroke
newpath
54301.6 53535.4 moveto
54419.7 53417.3 lineto
stroke
newpath
54419.7 53535.4 moveto
54301.6 53417.3 lineto
stroke
newpath
54331.1 62629.9 moveto
54449.3 62511.8 lineto
stroke
newpath
54449.3 62629.9 moveto
54331.1 62511.8 lineto
stroke
newpath
54419.7 53181.1 moveto
54537.8 53063 lineto
stroke
newpath
54537.8 53181.1 moveto
54419.7 53063 lineto
stroke
newpath
54449.3 57935.1 moveto
54567.4 57816.9 lineto
stroke
newpath
54567.4 57935.1 moveto
54449.3 57816.9 lineto
stroke
newpath
54478.8 60179.1 moveto
54596.9 60061 lineto
stroke
newpath
54596.9 60179.1 moveto
54478.8 60061 lineto
stroke
newpath
54478.8 56370.1 moveto
54596.9 56252 lineto
stroke
newpath
54596.9 56370.1 moveto
54478.8 56252 lineto
stroke
newpath
54478.8 52797.3 moveto
54596.9 52679.1 lineto
stroke
newpath
54596.9 52797.3 moveto
54478.8 52679.1 lineto
stroke
newpath
54537.8 55307.1 moveto
54655.9 55189 lineto
stroke
newpath
54655.9 55307.1 moveto
54537.8 55189 lineto
stroke
newpath
54567.4 60917.3 moveto
54685.5 60799.2 lineto
stroke
newpath
54685.5 60917.3 moveto
54567.4 60799.2 lineto
stroke
newpath
54626.4 60651.6 moveto
54744.5 60533.5 lineto
stroke
newpath
54744.5 60651.6 moveto
54626.4 60533.5 lineto
stroke
newpath
54655.9 59942.9 moveto
54774.1 59824.8 lineto
stroke
newpath
54774.1 59942.9 moveto
54655.9 59824.8 lineto
stroke
newpath
54715 56990.2 moveto
54833.1 56872.1 lineto
stroke
newpath
54833.1 56990.2 moveto
54715 56872.1 lineto
stroke
newpath
54744.5 62689 moveto
54862.6 62570.9 lineto
stroke
newpath
54862.6 62689 moveto
54744.5 62570.9 lineto
stroke
newpath
54774.1 57137.8 moveto
54892.2 57019.7 lineto
stroke
newpath
54892.2 57137.8 moveto
54774.1 57019.7 lineto
stroke
newpath
54774.1 53210.6 moveto
54892.2 53092.5 lineto
stroke
newpath
54892.2 53210.6 moveto
54774.1 53092.5 lineto
stroke
newpath
54892.2 52797.3 moveto
55010.3 52679.1 lineto
stroke
newpath
55010.3 52797.3 moveto
54892.2 52679.1 lineto
stroke
newpath
55187.4 54421.3 moveto
55305.6 54303.2 lineto
stroke
newpath
55305.6 54421.3 moveto
55187.4 54303.2 lineto
stroke
newpath
55187.4 54185.1 moveto
55305.6 54066.9 lineto
stroke
newpath
55305.6 54185.1 moveto
55187.4 54066.9 lineto
stroke
newpath
55276 56576.8 moveto
55394.1 56458.7 lineto
stroke
newpath
55394.1 56576.8 moveto
55276 56458.7 lineto
stroke
newpath
55335.1 52797.3 moveto
55453.2 52679.1 lineto
stroke
newpath
55453.2 52797.3 moveto
55335.1 52679.1 lineto
stroke
newpath
55459.1 55277.6 moveto
55577.2 55159.5 lineto
stroke
newpath
55577.2 55277.6 moveto
55459.1 55159.5 lineto
stroke
newpath
55541.8 62659.5 moveto
55659.9 62541.4 lineto
stroke
newpath
55659.9 62659.5 moveto
55541.8 62541.4 lineto
stroke
newpath
55565.4 62181.1 moveto
55683.5 62063 lineto
stroke
newpath
55683.5 62181.1 moveto
55565.4 62063 lineto
stroke
newpath
55754.4 55277.6 moveto
55872.5 55159.5 lineto
stroke
newpath
55872.5 55277.6 moveto
55754.4 55159.5 lineto
stroke
newpath
55807.5 52797.3 moveto
55925.6 52679.1 lineto
stroke
newpath
55925.6 52797.3 moveto
55807.5 52679.1 lineto
stroke
newpath
55896.1 62204.7 moveto
56014.2 62086.6 lineto
stroke
newpath
56014.2 62204.7 moveto
55896.1 62086.6 lineto
stroke
newpath
56102.8 62570.9 moveto
56220.9 62452.8 lineto
stroke
newpath
56220.9 62570.9 moveto
56102.8 62452.8 lineto
stroke
newpath
56191.4 52797.3 moveto
56309.5 52679.1 lineto
stroke
newpath
56309.5 52797.3 moveto
56191.4 52679.1 lineto
stroke
newpath
56226.8 58909.5 moveto
56344.9 58791.4 lineto
stroke
newpath
56344.9 58909.5 moveto
56226.8 58791.4 lineto
stroke
newpath
56533.9 52933.1 moveto
56652 52815 lineto
stroke
newpath
56652 52933.1 moveto
56533.9 52815 lineto
stroke
newpath
56575.2 58879.9 moveto
56693.3 58761.8 lineto
stroke
newpath
56693.3 58879.9 moveto
56575.2 58761.8 lineto
stroke
newpath
56604.8 58407.5 moveto
56722.9 58289.4 lineto
stroke
newpath
56722.9 58407.5 moveto
56604.8 58289.4 lineto
stroke
newpath
56663.8 57196.9 moveto
56781.9 57078.8 lineto
stroke
newpath
56781.9 57196.9 moveto
56663.8 57078.8 lineto
stroke
newpath
56781.9 53033.5 moveto
56900 52915.4 lineto
stroke
newpath
56900 53033.5 moveto
56781.9 52915.4 lineto
stroke
newpath
56841 58909.5 moveto
56959.1 58791.4 lineto
stroke
newpath
56959.1 58909.5 moveto
56841 58791.4 lineto
stroke
newpath
56841 58407.5 moveto
56959.1 58289.4 lineto
stroke
newpath
56959.1 58407.5 moveto
56841 58289.4 lineto
stroke
newpath
56841 57344.5 moveto
56959.1 57226.4 lineto
stroke
newpath
56959.1 57344.5 moveto
56841 57226.4 lineto
stroke
newpath
56841 56399.6 moveto
56959.1 56281.5 lineto
stroke
newpath
56959.1 56399.6 moveto
56841 56281.5 lineto
stroke
newpath
56900 54273.6 moveto
57018.2 54155.5 lineto
stroke
newpath
57018.2 54273.6 moveto
56900 54155.5 lineto
stroke
newpath
56900 53860.3 moveto
57018.2 53742.1 lineto
stroke
newpath
57018.2 53860.3 moveto
56900 53742.1 lineto
stroke
newpath
57006.3 52933.1 moveto
57124.4 52815 lineto
stroke
newpath
57124.4 52933.1 moveto
57006.3 52815 lineto
stroke
newpath
57112.6 59830.7 moveto
57230.7 59712.6 lineto
stroke
newpath
57230.7 59830.7 moveto
57112.6 59712.6 lineto
stroke
newpath
57136.3 54687 moveto
57254.4 54568.9 lineto
stroke
newpath
57254.4 54687 moveto
57136.3 54568.9 lineto
stroke
newpath
57254.4 60468.5 moveto
57372.5 60350.4 lineto
stroke
newpath
57372.5 60468.5 moveto
57254.4 60350.4 lineto
stroke
newpath
57313.4 58968.5 moveto
57431.5 58850.4 lineto
stroke
newpath
57431.5 58968.5 moveto
57313.4 58850.4 lineto
stroke
newpath
57313.4 57374 moveto
57431.5 57255.9 lineto
stroke
newpath
57431.5 57374 moveto
57313.4 57255.9 lineto
stroke
newpath
57343 53240.2 moveto
57461.1 53122.1 lineto
stroke
newpath
57461.1 53240.2 moveto
57343 53122.1 lineto
stroke
newpath
57372.5 60019.7 moveto
57490.6 59901.6 lineto
stroke
newpath
57490.6 60019.7 moveto
57372.5 59901.6 lineto
stroke
newpath
57372.5 52885.8 moveto
57490.6 52767.7 lineto
stroke
newpath
57490.6 52885.8 moveto
57372.5 52767.7 lineto
stroke
newpath
57431.5 58407.5 moveto
57549.6 58289.4 lineto
stroke
newpath
57549.6 58407.5 moveto
57431.5 58289.4 lineto
stroke
newpath
57431.5 56370.1 moveto
57549.6 56252 lineto
stroke
newpath
57549.6 56370.1 moveto
57431.5 56252 lineto
stroke
newpath
57490.6 57196.9 moveto
57608.7 57078.8 lineto
stroke
newpath
57608.7 57196.9 moveto
57490.6 57078.8 lineto
stroke
newpath
57667.8 58968.5 moveto
57785.9 58850.4 lineto
stroke
newpath
57785.9 58968.5 moveto
57667.8 58850.4 lineto
stroke
newpath
57667.8 58407.5 moveto
57785.9 58289.4 lineto
stroke
newpath
57785.9 58407.5 moveto
57667.8 58289.4 lineto
stroke
newpath
57691.4 60504 moveto
57809.5 60385.8 lineto
stroke
newpath
57809.5 60504 moveto
57691.4 60385.8 lineto
stroke
newpath
57844.9 55484.3 moveto
57963 55366.2 lineto
stroke
newpath
57963 55484.3 moveto
57844.9 55366.2 lineto
stroke
newpath
57856.7 59889.8 moveto
57974.8 59771.7 lineto
stroke
newpath
57974.8 59889.8 moveto
57856.7 59771.7 lineto
stroke
newpath
57874.4 52885.8 moveto
57992.6 52767.7 lineto
stroke
newpath
57992.6 52885.8 moveto
57874.4 52767.7 lineto
stroke
newpath
57892.2 61118.1 moveto
58010.3 61000 lineto
stroke
newpath
58010.3 61118.1 moveto
57892.2 61000 lineto
stroke
newpath
58085.3 57635.6 moveto
58203.5 57517.5 lineto
stroke
newpath
58203.5 57635.6 moveto
58085.3 57517.5 lineto
stroke
newpath
58140.2 57196.9 moveto
58258.3 57078.8 lineto
stroke
newpath
58258.3 57196.9 moveto
58140.2 57078.8 lineto
stroke
newpath
58140.2 56724.4 moveto
58258.3 56606.3 lineto
stroke
newpath
58258.3 56724.4 moveto
58140.2 56606.3 lineto
stroke
newpath
58435.5 55129.9 moveto
58553.6 55011.8 lineto
stroke
newpath
58553.6 55129.9 moveto
58435.5 55011.8 lineto
stroke
newpath
58494.5 62736.2 moveto
58612.6 62618.1 lineto
stroke
newpath
58612.6 62736.2 moveto
58494.5 62618.1 lineto
stroke
newpath
58518.2 60492.1 moveto
58636.3 60374 lineto
stroke
newpath
58636.3 60492.1 moveto
58518.2 60374 lineto
stroke
newpath
58789.8 62724.4 moveto
58907.9 62606.3 lineto
stroke
newpath
58907.9 62724.4 moveto
58789.8 62606.3 lineto
stroke
newpath
58878.4 54509.9 moveto
58996.5 54391.7 lineto
stroke
newpath
58996.5 54509.9 moveto
58878.4 54391.7 lineto
stroke
newpath
58967 58525.6 moveto
59085.1 58407.5 lineto
stroke
newpath
59085.1 58525.6 moveto
58967 58407.5 lineto
stroke
newpath
58967 58053.2 moveto
59085.1 57935.1 lineto
stroke
newpath
59085.1 58053.2 moveto
58967 57935.1 lineto
stroke
newpath
58967 57580.7 moveto
59085.1 57462.6 lineto
stroke
newpath
59085.1 57580.7 moveto
58967 57462.6 lineto
stroke
newpath
58967 57108.3 moveto
59085.1 56990.2 lineto
stroke
newpath
59085.1 57108.3 moveto
58967 56990.2 lineto
stroke
newpath
59061.5 61909.5 moveto
59179.6 61791.4 lineto
stroke
newpath
59179.6 61909.5 moveto
59061.5 61791.4 lineto
stroke
newpath
59439.4 58998 moveto
59557.5 58879.9 lineto
stroke
newpath
59557.5 58998 moveto
59439.4 58879.9 lineto
stroke
newpath
59439.4 58053.2 moveto
59557.5 57935.1 lineto
stroke
newpath
59557.5 58053.2 moveto
59439.4 57935.1 lineto
stroke
newpath
59439.4 56635.8 moveto
59557.5 56517.7 lineto
stroke
newpath
59557.5 56635.8 moveto
59439.4 56517.7 lineto
stroke
newpath
59557.5 54303.2 moveto
59675.6 54185.1 lineto
stroke
newpath
59675.6 54303.2 moveto
59557.5 54185.1 lineto
stroke
newpath
59675.6 62429.1 moveto
59793.7 62311 lineto
stroke
newpath
59793.7 62429.1 moveto
59675.6 62311 lineto
stroke
newpath
59805.6 62653.6 moveto
59923.7 62535.4 lineto
stroke
newpath
59923.7 62653.6 moveto
59805.6 62535.4 lineto
stroke
newpath
59908.9 58527.1 moveto
60027 58409 lineto
stroke
newpath
60027 58527.1 moveto
59908.9 58409 lineto
stroke
newpath
59911.9 58053.2 moveto
60030 57935.1 lineto
stroke
newpath
60030 58053.2 moveto
59911.9 57935.1 lineto
stroke
newpath
59911.9 57580.7 moveto
60030 57462.6 lineto
stroke
newpath
60030 57580.7 moveto
59911.9 57462.6 lineto
stroke
newpath
59911.9 57108.3 moveto
60030 56990.2 lineto
stroke
newpath
60030 57108.3 moveto
59911.9 56990.2 lineto
stroke
newpath
60148.1 62984.3 moveto
60266.2 62866.2 lineto
stroke
newpath
60266.2 62984.3 moveto
60148.1 62866.2 lineto
stroke
newpath
60177.6 55425.2 moveto
60295.7 55307.1 lineto
stroke
newpath
60295.7 55425.2 moveto
60177.6 55307.1 lineto
stroke
newpath
60266.2 59370.1 moveto
60384.3 59252 lineto
stroke
newpath
60384.3 59370.1 moveto
60266.2 59252 lineto
stroke
newpath
60266.2 55218.5 moveto
60384.3 55100.4 lineto
stroke
newpath
60384.3 55218.5 moveto
60266.2 55100.4 lineto
stroke
newpath
60413.8 55454.7 moveto
60531.9 55336.6 lineto
stroke
newpath
60531.9 55454.7 moveto
60413.8 55336.6 lineto
stroke
newpath
60431.5 60681.1 moveto
60549.6 60563 lineto
stroke
newpath
60549.6 60681.1 moveto
60431.5 60563 lineto
stroke
newpath
60679.6 61980.3 moveto
60797.7 61862.2 lineto
stroke
newpath
60797.7 61980.3 moveto
60679.6 61862.2 lineto
stroke
newpath
61211.1 55779.5 moveto
61329.2 55661.4 lineto
stroke
newpath
61329.2 55779.5 moveto
61211.1 55661.4 lineto
stroke
newpath
61246.5 56181.1 moveto
61364.6 56063 lineto
stroke
newpath
61364.6 56181.1 moveto
61246.5 56063 lineto
stroke
newpath
61254.4 53309 moveto
61372.5 53190.9 lineto
stroke
newpath
61372.5 53309 moveto
61254.4 53190.9 lineto
stroke
newpath
61358.7 58289.4 moveto
61476.8 58171.3 lineto
stroke
newpath
61476.8 58289.4 moveto
61358.7 58171.3 lineto
stroke
newpath
61388.2 55484.3 moveto
61506.3 55366.2 lineto
stroke
newpath
61506.3 55484.3 moveto
61388.2 55366.2 lineto
stroke
newpath
61417.8 54952.8 moveto
61535.9 54834.7 lineto
stroke
newpath
61535.9 54952.8 moveto
61417.8 54834.7 lineto
stroke
newpath
61447.3 60114.2 moveto
61565.4 59996.1 lineto
stroke
newpath
61565.4 60114.2 moveto
61447.3 59996.1 lineto
stroke
newpath
61447.3 54687 moveto
61565.4 54568.9 lineto
stroke
newpath
61565.4 54687 moveto
61447.3 54568.9 lineto
stroke
newpath
61470.9 60515.8 moveto
61589 60397.7 lineto
stroke
newpath
61589 60515.8 moveto
61470.9 60397.7 lineto
stroke
newpath
61553.6 60315 moveto
61671.7 60196.9 lineto
stroke
newpath
61671.7 60315 moveto
61553.6 60196.9 lineto
stroke
newpath
61654 58141.7 moveto
61772.1 58023.6 lineto
stroke
newpath
61772.1 58141.7 moveto
61654 58023.6 lineto
stroke
newpath
62037.8 62925.2 moveto
62155.9 62807.1 lineto
stroke
newpath
62155.9 62925.2 moveto
62037.8 62807.1 lineto
stroke
newpath
62037.8 61419.3 moveto
62155.9 61301.2 lineto
stroke
newpath
62155.9 61419.3 moveto
62037.8 61301.2 lineto
stroke
newpath
62037.8 60533.5 moveto
62155.9 60415.4 lineto
stroke
newpath
62155.9 60533.5 moveto
62037.8 60415.4 lineto
stroke
newpath
62167.8 59771.7 moveto
62285.9 59653.6 lineto
stroke
newpath
62285.9 59771.7 moveto
62167.8 59653.6 lineto
stroke
newpath
62185.5 55572.9 moveto
62303.6 55454.7 lineto
stroke
newpath
62303.6 55572.9 moveto
62185.5 55454.7 lineto
stroke
newpath
62333.1 61183.1 moveto
62451.2 61065 lineto
stroke
newpath
62451.2 61183.1 moveto
62333.1 61065 lineto
stroke
newpath
62333.1 59470.5 moveto
62451.2 59352.4 lineto
stroke
newpath
62451.2 59470.5 moveto
62333.1 59352.4 lineto
stroke
newpath
62392.2 60356.3 moveto
62510.3 60238.2 lineto
stroke
newpath
62510.3 60356.3 moveto
62392.2 60238.2 lineto
stroke
newpath
62392.2 53742.1 moveto
62510.3 53624 lineto
stroke
newpath
62510.3 53742.1 moveto
62392.2 53624 lineto
stroke
newpath
62982.7 55129.9 moveto
63100.8 55011.8 lineto
stroke
newpath
63100.8 55129.9 moveto
62982.7 55011.8 lineto
stroke
newpath
63337 62629.9 moveto
63455.2 62511.8 lineto
stroke
newpath
63455.2 62629.9 moveto
63337 62511.8 lineto
stroke
newpath
63661.9 62009.9 moveto
63780 61891.7 lineto
stroke
newpath
63780 62009.9 moveto
63661.9 61891.7 lineto
stroke
newpath
63809.5 59736.2 moveto
63927.6 59618.1 lineto
stroke
newpath
63927.6 59736.2 moveto
63809.5 59618.1 lineto
stroke
newpath
64069.3 53724.4 moveto
64187.4 53606.3 lineto
stroke
newpath
64187.4 53724.4 moveto
64069.3 53606.3 lineto
stroke
newpath
64281.9 55779.5 moveto
64400 55661.4 lineto
stroke
newpath
64400 55779.5 moveto
64281.9 55661.4 lineto
stroke
118.11 setlinewidth
0 0 0 setrgbcolor
0 0 0 setrgbcolor
newpath
51886 50461.8 moveto
51886 51642.9 lineto
52167.2 51642.9 lineto
52335.9 51586.6 lineto
52448.4 51474.1 lineto
52504.7 51361.7 lineto
52560.9 51136.7 lineto
52560.9 50968 lineto
52504.7 50743 lineto
52448.4 50630.5 lineto
52335.9 50518 lineto
52167.2 50461.8 lineto
51886 50461.8 lineto
stroke
newpath
53067.1 50461.8 moveto
53067.1 51249.2 lineto
stroke
newpath
53067.1 51024.2 moveto
53123.3 51136.7 lineto
53179.6 51192.9 lineto
53292.1 51249.2 lineto
53404.5 51249.2 lineto
stroke
newpath
53798.2 50461.8 moveto
53798.2 51249.2 lineto
stroke
newpath
53798.2 51642.9 moveto
53742 51586.6 lineto
53798.2 51530.4 lineto
53854.5 51586.6 lineto
53798.2 51642.9 lineto
53798.2 51530.4 lineto
stroke
newpath
54529.4 50461.8 moveto
54416.9 50518 lineto
54360.7 50630.5 lineto
54360.7 51642.9 lineto
stroke
newpath
55148.1 50461.8 moveto
55035.6 50518 lineto
54979.3 50630.5 lineto
54979.3 51642.9 lineto
stroke
newpath
56497.9 50461.8 moveto
56497.9 51642.9 lineto
56891.6 50799.2 lineto
57285.3 51642.9 lineto
57285.3 50461.8 lineto
stroke
newpath
58353.9 50461.8 moveto
58353.9 51080.4 lineto
58297.7 51192.9 lineto
58185.2 51249.2 lineto
57960.2 51249.2 lineto
57847.7 51192.9 lineto
stroke
newpath
58353.9 50518 moveto
58241.4 50461.8 lineto
57960.2 50461.8 lineto
57847.7 50518 lineto
57791.5 50630.5 lineto
57791.5 50743 lineto
57847.7 50855.5 lineto
57960.2 50911.7 lineto
58241.4 50911.7 lineto
58353.9 50968 lineto
stroke
newpath
58916.3 51249.2 moveto
58916.3 50068.1 lineto
stroke
newpath
58916.3 51192.9 moveto
59028.8 51249.2 lineto
59253.8 51249.2 lineto
59366.3 51192.9 lineto
59422.5 51136.7 lineto
59478.8 51024.2 lineto
59478.8 50686.7 lineto
59422.5 50574.3 lineto
59366.3 50518 lineto
59253.8 50461.8 lineto
59028.8 50461.8 lineto
58916.3 50518 lineto
stroke
newpath
59985 50574.3 moveto
60041.2 50518 lineto
59985 50461.8 lineto
59928.7 50518 lineto
59985 50574.3 lineto
59985 50461.8 lineto
stroke
newpath
59985 51192.9 moveto
60041.2 51136.7 lineto
59985 51080.4 lineto
59928.7 51136.7 lineto
59985 51192.9 lineto
59985 51080.4 lineto
stroke
newpath
50640.2 48574.8 moveto
50758.3 48456.7 lineto
stroke
newpath
50758.3 48574.8 moveto
50640.2 48456.7 lineto
stroke
0 0 0 setrgbcolor
0 0 0 setrgbcolor
newpath
52110.9 49162.6 moveto
52223.4 49162.6 lineto
52335.9 49106.3 lineto
52392.2 49050.1 lineto
52448.4 48937.6 lineto
52504.7 48712.6 lineto
52504.7 48431.4 lineto
52448.4 48206.4 lineto
52392.2 48093.9 lineto
52335.9 48037.7 lineto
52223.4 47981.5 lineto
52110.9 47981.5 lineto
51998.5 48037.7 lineto
51942.2 48093.9 lineto
51886 48206.4 lineto
51829.7 48431.4 lineto
51829.7 48712.6 lineto
51886 48937.6 lineto
51942.2 49050.1 lineto
51998.5 49106.3 lineto
52110.9 49162.6 lineto
stroke
newpath
53010.8 48093.9 moveto
53067.1 48037.7 lineto
53010.8 47981.5 lineto
52954.6 48037.7 lineto
53010.8 48093.9 lineto
53010.8 47981.5 lineto
stroke
newpath
54191.9 47981.5 moveto
53517 47981.5 lineto
stroke
newpath
53854.5 47981.5 moveto
53854.5 49162.6 lineto
53742 48993.8 lineto
53629.5 48881.3 lineto
53517 48825.1 lineto
stroke
newpath
54923.1 49162.6 moveto
55035.6 49162.6 lineto
55148.1 49106.3 lineto
55204.3 49050.1 lineto
55260.6 48937.6 lineto
55316.8 48712.6 lineto
55316.8 48431.4 lineto
55260.6 48206.4 lineto
55204.3 48093.9 lineto
55148.1 48037.7 lineto
55035.6 47981.5 lineto
54923.1 47981.5 lineto
54810.6 48037.7 lineto
54754.4 48093.9 lineto
54698.1 48206.4 lineto
54641.9 48431.4 lineto
54641.9 48712.6 lineto
54698.1 48937.6 lineto
54754.4 49050.1 lineto
54810.6 49106.3 lineto
54923.1 49162.6 lineto
stroke
newpath
56048 49162.6 moveto
56160.4 49162.6 lineto
56272.9 49106.3 lineto
56329.2 49050.1 lineto
56385.4 48937.6 lineto
56441.7 48712.6 lineto
56441.7 48431.4 lineto
56385.4 48206.4 lineto
56329.2 48093.9 lineto
56272.9 48037.7 lineto
56160.4 47981.5 lineto
56048 47981.5 lineto
55935.5 48037.7 lineto
55879.2 48093.9 lineto
55823 48206.4 lineto
55766.7 48431.4 lineto
55766.7 48712.6 lineto
55823 48937.6 lineto
55879.2 49050.1 lineto
55935.5 49106.3 lineto
56048 49162.6 lineto
stroke
newpath
56947.8 47981.5 moveto
56947.8 48768.9 lineto
stroke
newpath
56947.8 48656.4 moveto
57004.1 48712.6 lineto
57116.6 48768.9 lineto
57285.3 48768.9 lineto
57397.8 48712.6 lineto
57454 48600.1 lineto
57454 47981.5 lineto
stroke
newpath
57454 48600.1 moveto
57510.3 48712.6 lineto
57622.8 48768.9 lineto
57791.5 48768.9 lineto
57904 48712.6 lineto
57960.2 48600.1 lineto
57960.2 47981.5 lineto
stroke
newpath
58522.6 47981.5 moveto
58522.6 48768.9 lineto
stroke
newpath
58522.6 48656.4 moveto
58578.9 48712.6 lineto
58691.4 48768.9 lineto
58860.1 48768.9 lineto
58972.6 48712.6 lineto
59028.8 48600.1 lineto
59028.8 47981.5 lineto
stroke
newpath
59028.8 48600.1 moveto
59085.1 48712.6 lineto
59197.6 48768.9 lineto
59366.3 48768.9 lineto
59478.8 48712.6 lineto
59535 48600.1 lineto
59535 47981.5 lineto
stroke
newpath
61841 49218.8 moveto
60828.6 47700.2 lineto
stroke
newpath
63359.5 49162.6 moveto
63472 49162.6 lineto
63584.5 49106.3 lineto
63640.8 49050.1 lineto
63697 48937.6 lineto
63753.2 48712.6 lineto
63753.2 48431.4 lineto
63697 48206.4 lineto
63640.8 48093.9 lineto
63584.5 48037.7 lineto
63472 47981.5 lineto
63359.5 47981.5 lineto
63247.1 48037.7 lineto
63190.8 48093.9 lineto
63134.6 48206.4 lineto
63078.3 48431.4 lineto
63078.3 48712.6 lineto
63134.6 48937.6 lineto
63190.8 49050.1 lineto
63247.1 49106.3 lineto
63359.5 49162.6 lineto
stroke
newpath
64259.4 48093.9 moveto
64315.7 48037.7 lineto
64259.4 47981.5 lineto
64203.2 48037.7 lineto
64259.4 48093.9 lineto
64259.4 47981.5 lineto
stroke
newpath
65046.8 49162.6 moveto
65159.3 49162.6 lineto
65271.8 49106.3 lineto
65328 49050.1 lineto
65384.3 48937.6 lineto
65440.5 48712.6 lineto
65440.5 48431.4 lineto
65384.3 48206.4 lineto
65328 48093.9 lineto
65271.8 48037.7 lineto
65159.3 47981.5 lineto
65046.8 47981.5 lineto
64934.3 48037.7 lineto
64878.1 48093.9 lineto
64821.9 48206.4 lineto
64765.6 48431.4 lineto
64765.6 48712.6 lineto
64821.9 48937.6 lineto
64878.1 49050.1 lineto
64934.3 49106.3 lineto
65046.8 49162.6 lineto
stroke
newpath
66171.7 49162.6 moveto
66284.2 49162.6 lineto
66396.7 49106.3 lineto
66452.9 49050.1 lineto
66509.1 48937.6 lineto
66565.4 48712.6 lineto
66565.4 48431.4 lineto
66509.1 48206.4 lineto
66452.9 48093.9 lineto
66396.7 48037.7 lineto
66284.2 47981.5 lineto
66171.7 47981.5 lineto
66059.2 48037.7 lineto
66003 48093.9 lineto
65946.7 48206.4 lineto
65890.5 48431.4 lineto
65890.5 48712.6 lineto
65946.7 48937.6 lineto
66003 49050.1 lineto
66059.2 49106.3 lineto
66171.7 49162.6 lineto
stroke
newpath
66959.1 49162.6 moveto
67690.3 49162.6 lineto
67296.6 48712.6 lineto
67465.3 48712.6 lineto
67577.8 48656.4 lineto
67634 48600.1 lineto
67690.3 48487.6 lineto
67690.3 48206.4 lineto
67634 48093.9 lineto
67577.8 48037.7 lineto
67465.3 47981.5 lineto
67127.8 47981.5 lineto
67015.3 48037.7 lineto
66959.1 48093.9 lineto
stroke
newpath
68252.7 47981.5 moveto
68477.7 47981.5 lineto
68590.1 48037.7 lineto
68646.4 48093.9 lineto
68758.9 48262.7 lineto
68815.1 48487.6 lineto
68815.1 48937.6 lineto
68758.9 49050.1 lineto
68702.6 49106.3 lineto
68590.1 49162.6 lineto
68365.2 49162.6 lineto
68252.7 49106.3 lineto
68196.4 49050.1 lineto
68140.2 48937.6 lineto
68140.2 48656.4 lineto
68196.4 48543.9 lineto
68252.7 48487.6 lineto
68365.2 48431.4 lineto
68590.1 48431.4 lineto
68702.6 48487.6 lineto
68758.9 48543.9 lineto
68815.1 48656.4 lineto
stroke
newpath
69265.1 49162.6 moveto
69265.1 48937.6 lineto
stroke
newpath
69715 49162.6 moveto
69715 48937.6 lineto
stroke
newpath
71458.5 47531.5 moveto
71402.3 47587.8 lineto
71289.8 47756.5 lineto
71233.6 47869 lineto
71177.3 48037.7 lineto
71121.1 48318.9 lineto
71121.1 48543.9 lineto
71177.3 48825.1 lineto
71233.6 48993.8 lineto
71289.8 49106.3 lineto
71402.3 49275 lineto
71458.5 49331.3 lineto
stroke
newpath
72527.1 47981.5 moveto
71852.2 47981.5 lineto
stroke
newpath
72189.7 47981.5 moveto
72189.7 49162.6 lineto
72077.2 48993.8 lineto
71964.7 48881.3 lineto
71852.2 48825.1 lineto
stroke
newpath
73539.5 49162.6 moveto
73314.5 49162.6 lineto
73202.1 49106.3 lineto
73145.8 49050.1 lineto
73033.3 48881.3 lineto
72977.1 48656.4 lineto
72977.1 48206.4 lineto
73033.3 48093.9 lineto
73089.6 48037.7 lineto
73202.1 47981.5 lineto
73427 47981.5 lineto
73539.5 48037.7 lineto
73595.8 48093.9 lineto
73652 48206.4 lineto
73652 48487.6 lineto
73595.8 48600.1 lineto
73539.5 48656.4 lineto
73427 48712.6 lineto
73202.1 48712.6 lineto
73089.6 48656.4 lineto
73033.3 48600.1 lineto
72977.1 48487.6 lineto
stroke
newpath
74045.7 49162.6 moveto
74833.1 49162.6 lineto
74326.9 47981.5 lineto
stroke
newpath
76182.9 47981.5 moveto
76182.9 49162.6 lineto
stroke
newpath
76689.1 47981.5 moveto
76689.1 48600.1 lineto
76632.9 48712.6 lineto
76520.4 48768.9 lineto
76351.7 48768.9 lineto
76239.2 48712.6 lineto
76182.9 48656.4 lineto
stroke
newpath
77420.3 47981.5 moveto
77307.8 48037.7 lineto
77251.6 48093.9 lineto
77195.3 48206.4 lineto
77195.3 48543.9 lineto
77251.6 48656.4 lineto
77307.8 48712.6 lineto
77420.3 48768.9 lineto
77589 48768.9 lineto
77701.5 48712.6 lineto
77757.7 48656.4 lineto
77814 48543.9 lineto
77814 48206.4 lineto
77757.7 48093.9 lineto
77701.5 48037.7 lineto
77589 47981.5 lineto
77420.3 47981.5 lineto
stroke
newpath
78488.9 47981.5 moveto
78376.4 48037.7 lineto
78320.2 48150.2 lineto
78320.2 49162.6 lineto
stroke
newpath
79388.8 48037.7 moveto
79276.3 47981.5 lineto
79051.3 47981.5 lineto
78938.8 48037.7 lineto
78882.6 48150.2 lineto
78882.6 48600.1 lineto
78938.8 48712.6 lineto
79051.3 48768.9 lineto
79276.3 48768.9 lineto
79388.8 48712.6 lineto
79445 48600.1 lineto
79445 48487.6 lineto
78882.6 48375.2 lineto
stroke
newpath
79895 48037.7 moveto
80007.5 47981.5 lineto
80232.4 47981.5 lineto
80344.9 48037.7 lineto
80401.2 48150.2 lineto
80401.2 48206.4 lineto
80344.9 48318.9 lineto
80232.4 48375.2 lineto
80063.7 48375.2 lineto
79951.2 48431.4 lineto
79895 48543.9 lineto
79895 48600.1 lineto
79951.2 48712.6 lineto
80063.7 48768.9 lineto
80232.4 48768.9 lineto
80344.9 48712.6 lineto
stroke
newpath
80794.9 47531.5 moveto
80851.1 47587.8 lineto
80963.6 47756.5 lineto
81019.8 47869 lineto
81076.1 48037.7 lineto
81132.3 48318.9 lineto
81132.3 48543.9 lineto
81076.1 48825.1 lineto
81019.8 48993.8 lineto
80963.6 49106.3 lineto
80851.1 49275 lineto
80794.9 49331.3 lineto
stroke
showpage
grestore
%%EOF
