%!PS-Adobe-3.0
%%Creator: PCBNEW
%%CreationDate: Sun Sep 26 20:47:42 2021
%%Title: /home/suhas/hello/msc/fpga-on-usbport/hardware/gerberfiles/fpga-on-usbport-in1-in2-drl_map.ps
%%Pages: 1
%%PageOrder: Ascend
%%BoundingBox: 0 0 596 842
%%DocumentMedia: A4 595 842 0 () ()
%%Orientation: Landscape
%%EndComments
%%BeginProlog
/line { newpath moveto lineto stroke } bind def
/cir0 { newpath 0 360 arc stroke } bind def
/cir1 { newpath 0 360 arc gsave fill grestore stroke } bind def
/cir2 { newpath 0 360 arc gsave fill grestore stroke } bind def
/arc0 { newpath arc stroke } bind def
/arc1 { newpath 4 index 4 index moveto arc closepath gsave fill
    grestore stroke } bind def
/arc2 { newpath 4 index 4 index moveto arc closepath gsave fill
    grestore stroke } bind def
/poly0 { stroke } bind def
/poly1 { closepath gsave fill grestore stroke } bind def
/poly2 { closepath gsave fill grestore stroke } bind def
/rect0 { rectstroke } bind def
/rect1 { rectfill } bind def
/rect2 { rectfill } bind def
/linemode0 { 0 setlinecap 0 setlinejoin 0 setlinewidth } bind def
/linemode1 { 1 setlinecap 1 setlinejoin } bind def
/dashedline { [200] 100 setdash } bind def
/solidline { [] 0 setdash } bind def
/phantomshow { moveto
    /KicadFont findfont 0.000001 scalefont setfont
    show } bind def
/textshow { gsave
    findfont exch scalefont setfont concat 1 scale 0 0 moveto show
    } bind def
/reencodefont {
  findfont dup length dict begin
  { 1 index /FID ne
    { def }
    { pop pop } ifelse
  } forall
  /Encoding ISOLatin1Encoding def
  currentdict
  end } bind def
/KicadFont /Helvetica reencodefont definefont pop
/KicadFont-Bold /Helvetica-Bold reencodefont definefont pop
/KicadFont-Oblique /Helvetica-Oblique reencodefont definefont pop
/KicadFont-BoldOblique /Helvetica-BoldOblique reencodefont definefont pop
%%EndProlog
%%Page: 1 1
%%BeginPageSetup
gsave
0.0072 0.0072 scale
linemode1
82680 0 translate 90 rotate
150 setlinewidth
%%EndPageSetup
0 0 0 setrgbcolor
11.811 setlinewidth
64606.7 56872.1 708.661 180 360 arc0
0 0 0 setrgbcolor
64606.7 58879.9 708.661 -0 180 arc0
0 0 0 setrgbcolor
63898.1 57876 1003.94 -270 -90 arc0
0 0 0 setrgbcolor
59.0551 setlinewidth
63396.1 52324.8 944.882 -0 180 arc0
0 0 0 setrgbcolor
newpath
64341 52324.8 moveto
65551.6 52324.8 lineto
stroke
0 0 0 setrgbcolor
11.811 setlinewidth
newpath
65315.4 58879.9 moveto
65315.4 56872.1 lineto
stroke
0 0 0 setrgbcolor
59.0551 setlinewidth
51378.4 62836.6 590.551 90 180 arc0
0 0 0 setrgbcolor
51378.4 52915.4 590.551 -180 -90 arc0
0 0 0 setrgbcolor
newpath
50787.8 62836.6 moveto
50787.8 52915.4 lineto
stroke
0 0 0 setrgbcolor
newpath
65551.6 63427.2 moveto
51378.4 63427.2 lineto
stroke
0 0 0 setrgbcolor
newpath
51378.4 52324.8 moveto
62451.2 52324.8 lineto
stroke
0 0 0 setrgbcolor
newpath
66142.2 57876 moveto
66142.2 58029.5 lineto
stroke
0 0 0 setrgbcolor
newpath
66142.2 58029.5 moveto
66142.2 58194.9 lineto
stroke
0 0 0 setrgbcolor
newpath
66142.2 58194.9 moveto
66142.2 58348.4 lineto
stroke
0 0 0 setrgbcolor
newpath
66142.2 58348.4 moveto
66142.2 58513.8 lineto
stroke
0 0 0 setrgbcolor
newpath
66142.2 58513.8 moveto
66130.4 58667.3 lineto
stroke
0 0 0 setrgbcolor
newpath
66130.4 58667.3 moveto
66130.4 58832.7 lineto
stroke
0 0 0 setrgbcolor
newpath
66130.4 58832.7 moveto
66130.4 58986.2 lineto
stroke
0 0 0 setrgbcolor
newpath
66130.4 58986.2 moveto
66118.5 59139.8 lineto
stroke
0 0 0 setrgbcolor
newpath
66118.5 59139.8 moveto
66118.5 59305.1 lineto
stroke
0 0 0 setrgbcolor
newpath
66118.5 59305.1 moveto
66106.7 59458.7 lineto
stroke
0 0 0 setrgbcolor
newpath
66106.7 59458.7 moveto
66094.9 59612.2 lineto
stroke
0 0 0 setrgbcolor
newpath
66094.9 59612.2 moveto
66094.9 59765.8 lineto
stroke
0 0 0 setrgbcolor
newpath
66094.9 59765.8 moveto
66083.1 59919.3 lineto
stroke
0 0 0 setrgbcolor
newpath
66083.1 59919.3 moveto
66071.3 60061 lineto
stroke
0 0 0 setrgbcolor
newpath
66071.3 60061 moveto
66059.5 60214.6 lineto
stroke
0 0 0 setrgbcolor
newpath
66059.5 60214.6 moveto
66047.7 60356.3 lineto
stroke
0 0 0 setrgbcolor
newpath
66047.7 60356.3 moveto
66035.9 60509.9 lineto
stroke
0 0 0 setrgbcolor
newpath
66035.9 60509.9 moveto
66024.1 60651.6 lineto
stroke
0 0 0 setrgbcolor
newpath
66024.1 60651.6 moveto
66012.2 60793.3 lineto
stroke
0 0 0 setrgbcolor
newpath
66012.2 60793.3 moveto
66000.4 60935.1 lineto
stroke
0 0 0 setrgbcolor
newpath
66000.4 60935.1 moveto
65988.6 61076.8 lineto
stroke
0 0 0 setrgbcolor
newpath
65988.6 61076.8 moveto
65976.8 61218.5 lineto
stroke
0 0 0 setrgbcolor
newpath
65976.8 61218.5 moveto
65953.2 61348.4 lineto
stroke
0 0 0 setrgbcolor
newpath
65953.2 61348.4 moveto
65941.4 61490.2 lineto
stroke
0 0 0 setrgbcolor
newpath
65941.4 61490.2 moveto
65929.6 61620.1 lineto
stroke
0 0 0 setrgbcolor
newpath
65929.6 61620.1 moveto
65905.9 61750 lineto
stroke
0 0 0 setrgbcolor
newpath
65905.9 61750 moveto
65894.1 61868.1 lineto
stroke
0 0 0 setrgbcolor
newpath
65894.1 61868.1 moveto
65870.5 61998 lineto
stroke
0 0 0 setrgbcolor
newpath
65870.5 61998 moveto
65858.7 62116.2 lineto
stroke
0 0 0 setrgbcolor
newpath
65858.7 62116.2 moveto
65835.1 62234.3 lineto
stroke
0 0 0 setrgbcolor
newpath
65835.1 62234.3 moveto
65811.5 62352.4 lineto
stroke
0 0 0 setrgbcolor
newpath
65811.5 62352.4 moveto
65799.6 62470.5 lineto
stroke
0 0 0 setrgbcolor
newpath
65799.6 62470.5 moveto
65776 62576.8 lineto
stroke
0 0 0 setrgbcolor
newpath
65776 62576.8 moveto
65752.4 62694.9 lineto
stroke
0 0 0 setrgbcolor
newpath
65752.4 62694.9 moveto
65728.8 62789.4 lineto
stroke
0 0 0 setrgbcolor
newpath
65728.8 62789.4 moveto
65705.2 62895.7 lineto
stroke
0 0 0 setrgbcolor
newpath
65705.2 62895.7 moveto
65693.3 63002 lineto
stroke
0 0 0 setrgbcolor
newpath
65693.3 63002 moveto
65669.7 63096.5 lineto
stroke
0 0 0 setrgbcolor
newpath
65669.7 63096.5 moveto
65646.1 63191 lineto
stroke
0 0 0 setrgbcolor
newpath
65646.1 63191 moveto
65622.5 63273.6 lineto
stroke
0 0 0 setrgbcolor
newpath
65622.5 63273.6 moveto
65587 63368.1 lineto
stroke
0 0 0 setrgbcolor
newpath
65587 63368.1 moveto
65551.6 63427.2 lineto
stroke
0 0 0 setrgbcolor
newpath
65551.6 52324.8 moveto
65587 52383.9 lineto
stroke
0 0 0 setrgbcolor
newpath
65587 52383.9 moveto
65622.5 52478.4 lineto
stroke
0 0 0 setrgbcolor
newpath
65622.5 52478.4 moveto
65646.1 52561 lineto
stroke
0 0 0 setrgbcolor
newpath
65646.1 52561 moveto
65669.7 52655.5 lineto
stroke
0 0 0 setrgbcolor
newpath
65669.7 52655.5 moveto
65693.3 52750 lineto
stroke
0 0 0 setrgbcolor
newpath
65693.3 52750 moveto
65705.2 52856.3 lineto
stroke
0 0 0 setrgbcolor
newpath
65705.2 52856.3 moveto
65728.8 52962.6 lineto
stroke
0 0 0 setrgbcolor
newpath
65728.8 52962.6 moveto
65752.4 53057.1 lineto
stroke
0 0 0 setrgbcolor
newpath
65752.4 53057.1 moveto
65776 53175.2 lineto
stroke
0 0 0 setrgbcolor
newpath
65776 53175.2 moveto
65799.6 53281.5 lineto
stroke
0 0 0 setrgbcolor
newpath
65799.6 53281.5 moveto
65811.5 53399.6 lineto
stroke
0 0 0 setrgbcolor
newpath
65811.5 53399.6 moveto
65835.1 53517.7 lineto
stroke
0 0 0 setrgbcolor
newpath
65835.1 53517.7 moveto
65858.7 53635.8 lineto
stroke
0 0 0 setrgbcolor
newpath
65858.7 53635.8 moveto
65870.5 53754 lineto
stroke
0 0 0 setrgbcolor
newpath
65870.5 53754 moveto
65894.1 53883.9 lineto
stroke
0 0 0 setrgbcolor
newpath
65894.1 53883.9 moveto
65905.9 54002 lineto
stroke
0 0 0 setrgbcolor
newpath
65905.9 54002 moveto
65929.6 54131.9 lineto
stroke
0 0 0 setrgbcolor
newpath
65929.6 54131.9 moveto
65941.4 54261.8 lineto
stroke
0 0 0 setrgbcolor
newpath
65941.4 54261.8 moveto
65953.2 54403.6 lineto
stroke
0 0 0 setrgbcolor
newpath
65953.2 54403.6 moveto
65976.8 54533.5 lineto
stroke
0 0 0 setrgbcolor
newpath
65976.8 54533.5 moveto
65988.6 54675.2 lineto
stroke
0 0 0 setrgbcolor
newpath
65988.6 54675.2 moveto
66000.4 54816.9 lineto
stroke
0 0 0 setrgbcolor
newpath
66000.4 54816.9 moveto
66012.2 54958.7 lineto
stroke
0 0 0 setrgbcolor
newpath
66012.2 54958.7 moveto
66024.1 55100.4 lineto
stroke
0 0 0 setrgbcolor
newpath
66024.1 55100.4 moveto
66035.9 55242.1 lineto
stroke
0 0 0 setrgbcolor
newpath
66035.9 55242.1 moveto
66047.7 55395.7 lineto
stroke
0 0 0 setrgbcolor
newpath
66047.7 55395.7 moveto
66059.5 55537.4 lineto
stroke
0 0 0 setrgbcolor
newpath
66059.5 55537.4 moveto
66071.3 55691 lineto
stroke
0 0 0 setrgbcolor
newpath
66071.3 55691 moveto
66083.1 55832.7 lineto
stroke
0 0 0 setrgbcolor
newpath
66083.1 55832.7 moveto
66094.9 55986.2 lineto
stroke
0 0 0 setrgbcolor
newpath
66094.9 55986.2 moveto
66094.9 56139.8 lineto
stroke
0 0 0 setrgbcolor
newpath
66094.9 56139.8 moveto
66106.7 56293.3 lineto
stroke
0 0 0 setrgbcolor
newpath
66106.7 56293.3 moveto
66118.5 56446.9 lineto
stroke
0 0 0 setrgbcolor
newpath
66118.5 56446.9 moveto
66118.5 56612.2 lineto
stroke
0 0 0 setrgbcolor
newpath
66118.5 56612.2 moveto
66130.4 56765.8 lineto
stroke
0 0 0 setrgbcolor
newpath
66130.4 56765.8 moveto
66130.4 56919.3 lineto
stroke
0 0 0 setrgbcolor
newpath
66130.4 56919.3 moveto
66130.4 57084.7 lineto
stroke
0 0 0 setrgbcolor
newpath
66130.4 57084.7 moveto
66142.2 57238.2 lineto
stroke
0 0 0 setrgbcolor
newpath
66142.2 57238.2 moveto
66142.2 57403.6 lineto
stroke
0 0 0 setrgbcolor
newpath
66142.2 57403.6 moveto
66142.2 57557.1 lineto
stroke
0 0 0 setrgbcolor
newpath
66142.2 57557.1 moveto
66142.2 57722.5 lineto
stroke
0 0 0 setrgbcolor
newpath
66142.2 57722.5 moveto
66142.2 57876 lineto
stroke
78.7394 setlinewidth
newpath
51171.7 57492.1 moveto
51407.9 57255.9 lineto
stroke
newpath
51407.9 57492.1 moveto
51171.7 57255.9 lineto
stroke
newpath
51585.1 53004 moveto
51821.3 52767.7 lineto
stroke
newpath
51821.3 53004 moveto
51585.1 52767.7 lineto
stroke
newpath
52057.5 53358.3 moveto
52293.7 53122.1 lineto
stroke
newpath
52293.7 53358.3 moveto
52057.5 53122.1 lineto
stroke
newpath
52234.7 55572.9 moveto
52470.9 55336.6 lineto
stroke
newpath
52470.9 55572.9 moveto
52234.7 55336.6 lineto
stroke
newpath
52293.7 60563 moveto
52530 60326.8 lineto
stroke
newpath
52530 60563 moveto
52293.7 60326.8 lineto
stroke
newpath
52323.3 59795.3 moveto
52559.5 59559.1 lineto
stroke
newpath
52559.5 59795.3 moveto
52323.3 59559.1 lineto
stroke
newpath
52530 53830.7 moveto
52766.2 53594.5 lineto
stroke
newpath
52766.2 53830.7 moveto
52530 53594.5 lineto
stroke
newpath
52530 53358.3 moveto
52766.2 53122.1 lineto
stroke
newpath
52766.2 53358.3 moveto
52530 53122.1 lineto
stroke
newpath
53031.9 58200.8 moveto
53268.2 57964.6 lineto
stroke
newpath
53268.2 58200.8 moveto
53031.9 57964.6 lineto
stroke
newpath
53740.6 58171.3 moveto
53976.8 57935.1 lineto
stroke
newpath
53976.8 58171.3 moveto
53740.6 57935.1 lineto
stroke
newpath
53947.3 56222.5 moveto
54183.5 55986.2 lineto
stroke
newpath
54183.5 56222.5 moveto
53947.3 55986.2 lineto
stroke
newpath
54035.9 62364.2 moveto
54272.1 62128 lineto
stroke
newpath
54272.1 62364.2 moveto
54035.9 62128 lineto
stroke
newpath
54449.3 56842.5 moveto
54685.5 56606.3 lineto
stroke
newpath
54685.5 56842.5 moveto
54449.3 56606.3 lineto
stroke
newpath
54478.8 55602.4 moveto
54715 55366.2 lineto
stroke
newpath
54715 55602.4 moveto
54478.8 55366.2 lineto
stroke
newpath
54537.8 62364.2 moveto
54774.1 62128 lineto
stroke
newpath
54774.1 62364.2 moveto
54537.8 62128 lineto
stroke
newpath
55217 53712.6 moveto
55453.2 53476.4 lineto
stroke
newpath
55453.2 53712.6 moveto
55217 53476.4 lineto
stroke
newpath
55482.7 55513.8 moveto
55718.9 55277.6 lineto
stroke
newpath
55718.9 55513.8 moveto
55482.7 55277.6 lineto
stroke
newpath
55541.8 54539.4 moveto
55778 54303.2 lineto
stroke
newpath
55778 54539.4 moveto
55541.8 54303.2 lineto
stroke
newpath
56191.4 56340.6 moveto
56427.6 56104.3 lineto
stroke
newpath
56427.6 56340.6 moveto
56191.4 56104.3 lineto
stroke
newpath
56220.9 58348.4 moveto
56457.1 58112.2 lineto
stroke
newpath
56457.1 58348.4 moveto
56220.9 58112.2 lineto
stroke
newpath
56250.4 60917.3 moveto
56486.7 60681.1 lineto
stroke
newpath
56486.7 60917.3 moveto
56250.4 60681.1 lineto
stroke
newpath
56309.5 57226.4 moveto
56545.7 56990.2 lineto
stroke
newpath
56545.7 57226.4 moveto
56309.5 56990.2 lineto
stroke
newpath
56545.7 62570.9 moveto
56781.9 62334.7 lineto
stroke
newpath
56781.9 62570.9 moveto
56545.7 62334.7 lineto
stroke
newpath
56947.3 61673.2 moveto
57183.5 61437 lineto
stroke
newpath
57183.5 61673.2 moveto
56947.3 61437 lineto
stroke
newpath
57018.2 58259.9 moveto
57254.4 58023.6 lineto
stroke
newpath
57254.4 58259.9 moveto
57018.2 58023.6 lineto
stroke
newpath
57077.2 57196.9 moveto
57313.4 56960.6 lineto
stroke
newpath
57313.4 57196.9 moveto
57077.2 56960.6 lineto
stroke
newpath
57585.1 62606.3 moveto
57821.3 62370.1 lineto
stroke
newpath
57821.3 62606.3 moveto
57585.1 62370.1 lineto
stroke
newpath
57726.8 58259.9 moveto
57963 58023.6 lineto
stroke
newpath
57963 58259.9 moveto
57726.8 58023.6 lineto
stroke
newpath
58346.9 53771.7 moveto
58583.1 53535.4 lineto
stroke
newpath
58583.1 53771.7 moveto
58346.9 53535.4 lineto
stroke
newpath
58376.4 58643.7 moveto
58612.6 58407.5 lineto
stroke
newpath
58612.6 58643.7 moveto
58376.4 58407.5 lineto
stroke
newpath
58541.8 62535.4 moveto
58778 62299.2 lineto
stroke
newpath
58778 62535.4 moveto
58541.8 62299.2 lineto
stroke
newpath
58825.2 61189 moveto
59061.5 60952.8 lineto
stroke
newpath
59061.5 61189 moveto
58825.2 60952.8 lineto
stroke
newpath
59321.3 57255.9 moveto
59557.5 57019.7 lineto
stroke
newpath
59557.5 57255.9 moveto
59321.3 57019.7 lineto
stroke
newpath
59380.4 55513.8 moveto
59616.6 55277.6 lineto
stroke
newpath
59616.6 55513.8 moveto
59380.4 55277.6 lineto
stroke
newpath
59852.8 62074.8 moveto
60089 61838.6 lineto
stroke
newpath
60089 62074.8 moveto
59852.8 61838.6 lineto
stroke
newpath
60177.6 53476.4 moveto
60413.8 53240.2 lineto
stroke
newpath
60413.8 53476.4 moveto
60177.6 53240.2 lineto
stroke
newpath
60266.2 57580.7 moveto
60502.4 57344.5 lineto
stroke
newpath
60502.4 57580.7 moveto
60266.2 57344.5 lineto
stroke
newpath
60325.2 58348.4 moveto
60561.5 58112.2 lineto
stroke
newpath
60561.5 58348.4 moveto
60325.2 58112.2 lineto
stroke
newpath
60413.8 54450.8 moveto
60650 54214.6 lineto
stroke
newpath
60650 54450.8 moveto
60413.8 54214.6 lineto
stroke
newpath
60768.2 55425.2 moveto
61004.4 55189 lineto
stroke
newpath
61004.4 55425.2 moveto
60768.2 55189 lineto
stroke
newpath
60915.8 62511.8 moveto
61152 62275.6 lineto
stroke
newpath
61152 62511.8 moveto
60915.8 62275.6 lineto
stroke
newpath
61299.6 58112.2 moveto
61535.9 57876 lineto
stroke
newpath
61535.9 58112.2 moveto
61299.6 57876 lineto
stroke
newpath
61329.2 61803.2 moveto
61565.4 61566.9 lineto
stroke
newpath
61565.4 61803.2 moveto
61329.2 61566.9 lineto
stroke
newpath
61470.9 60799.2 moveto
61707.1 60563 lineto
stroke
newpath
61707.1 60799.2 moveto
61470.9 60563 lineto
stroke
newpath
61577.2 59937 moveto
61813.4 59700.8 lineto
stroke
newpath
61813.4 59937 moveto
61577.2 59700.8 lineto
stroke
newpath
61594.9 57462.6 moveto
61831.1 57226.4 lineto
stroke
newpath
61831.1 57462.6 moveto
61594.9 57226.4 lineto
stroke
newpath
61890.2 53328.8 moveto
62126.4 53092.5 lineto
stroke
newpath
62126.4 53328.8 moveto
61890.2 53092.5 lineto
stroke
newpath
62569.3 62511.8 moveto
62805.6 62275.6 lineto
stroke
newpath
62805.6 62511.8 moveto
62569.3 62275.6 lineto
stroke
newpath
63041.8 55602.4 moveto
63278 55366.2 lineto
stroke
newpath
63278 55602.4 moveto
63041.8 55366.2 lineto
stroke
newpath
63278 59470.5 moveto
63514.2 59234.3 lineto
stroke
newpath
63514.2 59470.5 moveto
63278 59234.3 lineto
stroke
newpath
64163.8 62157.5 moveto
64400 61921.3 lineto
stroke
newpath
64400 62157.5 moveto
64163.8 61921.3 lineto
stroke
newpath
64695.3 55838.6 moveto
64931.5 55602.4 lineto
stroke
newpath
64931.5 55838.6 moveto
64695.3 55602.4 lineto
stroke
newpath
64943.3 53641.7 moveto
65179.6 53405.5 lineto
stroke
newpath
65179.6 53641.7 moveto
64943.3 53405.5 lineto
stroke
118.11 setlinewidth
0 0 0 setrgbcolor
0 0 0 setrgbcolor
newpath
51886 50461.8 moveto
51886 51642.9 lineto
52167.2 51642.9 lineto
52335.9 51586.6 lineto
52448.4 51474.1 lineto
52504.7 51361.7 lineto
52560.9 51136.7 lineto
52560.9 50968 lineto
52504.7 50743 lineto
52448.4 50630.5 lineto
52335.9 50518 lineto
52167.2 50461.8 lineto
51886 50461.8 lineto
stroke
newpath
53067.1 50461.8 moveto
53067.1 51249.2 lineto
stroke
newpath
53067.1 51024.2 moveto
53123.3 51136.7 lineto
53179.6 51192.9 lineto
53292.1 51249.2 lineto
53404.5 51249.2 lineto
stroke
newpath
53798.2 50461.8 moveto
53798.2 51249.2 lineto
stroke
newpath
53798.2 51642.9 moveto
53742 51586.6 lineto
53798.2 51530.4 lineto
53854.5 51586.6 lineto
53798.2 51642.9 lineto
53798.2 51530.4 lineto
stroke
newpath
54529.4 50461.8 moveto
54416.9 50518 lineto
54360.7 50630.5 lineto
54360.7 51642.9 lineto
stroke
newpath
55148.1 50461.8 moveto
55035.6 50518 lineto
54979.3 50630.5 lineto
54979.3 51642.9 lineto
stroke
newpath
56497.9 50461.8 moveto
56497.9 51642.9 lineto
56891.6 50799.2 lineto
57285.3 51642.9 lineto
57285.3 50461.8 lineto
stroke
newpath
58353.9 50461.8 moveto
58353.9 51080.4 lineto
58297.7 51192.9 lineto
58185.2 51249.2 lineto
57960.2 51249.2 lineto
57847.7 51192.9 lineto
stroke
newpath
58353.9 50518 moveto
58241.4 50461.8 lineto
57960.2 50461.8 lineto
57847.7 50518 lineto
57791.5 50630.5 lineto
57791.5 50743 lineto
57847.7 50855.5 lineto
57960.2 50911.7 lineto
58241.4 50911.7 lineto
58353.9 50968 lineto
stroke
newpath
58916.3 51249.2 moveto
58916.3 50068.1 lineto
stroke
newpath
58916.3 51192.9 moveto
59028.8 51249.2 lineto
59253.8 51249.2 lineto
59366.3 51192.9 lineto
59422.5 51136.7 lineto
59478.8 51024.2 lineto
59478.8 50686.7 lineto
59422.5 50574.3 lineto
59366.3 50518 lineto
59253.8 50461.8 lineto
59028.8 50461.8 lineto
58916.3 50518 lineto
stroke
newpath
59985 50574.3 moveto
60041.2 50518 lineto
59985 50461.8 lineto
59928.7 50518 lineto
59985 50574.3 lineto
59985 50461.8 lineto
stroke
newpath
59985 51192.9 moveto
60041.2 51136.7 lineto
59985 51080.4 lineto
59928.7 51136.7 lineto
59985 51192.9 lineto
59985 51080.4 lineto
stroke
newpath
50522.1 48633.9 moveto
50758.3 48397.7 lineto
stroke
newpath
50758.3 48633.9 moveto
50522.1 48397.7 lineto
stroke
0 0 0 setrgbcolor
0 0 0 setrgbcolor
newpath
52110.9 49162.6 moveto
52223.4 49162.6 lineto
52335.9 49106.3 lineto
52392.2 49050.1 lineto
52448.4 48937.6 lineto
52504.7 48712.6 lineto
52504.7 48431.4 lineto
52448.4 48206.4 lineto
52392.2 48093.9 lineto
52335.9 48037.7 lineto
52223.4 47981.5 lineto
52110.9 47981.5 lineto
51998.5 48037.7 lineto
51942.2 48093.9 lineto
51886 48206.4 lineto
51829.7 48431.4 lineto
51829.7 48712.6 lineto
51886 48937.6 lineto
51942.2 49050.1 lineto
51998.5 49106.3 lineto
52110.9 49162.6 lineto
stroke
newpath
53010.8 48093.9 moveto
53067.1 48037.7 lineto
53010.8 47981.5 lineto
52954.6 48037.7 lineto
53010.8 48093.9 lineto
53010.8 47981.5 lineto
stroke
newpath
53517 49050.1 moveto
53573.3 49106.3 lineto
53685.8 49162.6 lineto
53967 49162.6 lineto
54079.5 49106.3 lineto
54135.7 49050.1 lineto
54191.9 48937.6 lineto
54191.9 48825.1 lineto
54135.7 48656.4 lineto
53460.8 47981.5 lineto
54191.9 47981.5 lineto
stroke
newpath
54923.1 49162.6 moveto
55035.6 49162.6 lineto
55148.1 49106.3 lineto
55204.3 49050.1 lineto
55260.6 48937.6 lineto
55316.8 48712.6 lineto
55316.8 48431.4 lineto
55260.6 48206.4 lineto
55204.3 48093.9 lineto
55148.1 48037.7 lineto
55035.6 47981.5 lineto
54923.1 47981.5 lineto
54810.6 48037.7 lineto
54754.4 48093.9 lineto
54698.1 48206.4 lineto
54641.9 48431.4 lineto
54641.9 48712.6 lineto
54698.1 48937.6 lineto
54754.4 49050.1 lineto
54810.6 49106.3 lineto
54923.1 49162.6 lineto
stroke
newpath
56048 49162.6 moveto
56160.4 49162.6 lineto
56272.9 49106.3 lineto
56329.2 49050.1 lineto
56385.4 48937.6 lineto
56441.7 48712.6 lineto
56441.7 48431.4 lineto
56385.4 48206.4 lineto
56329.2 48093.9 lineto
56272.9 48037.7 lineto
56160.4 47981.5 lineto
56048 47981.5 lineto
55935.5 48037.7 lineto
55879.2 48093.9 lineto
55823 48206.4 lineto
55766.7 48431.4 lineto
55766.7 48712.6 lineto
55823 48937.6 lineto
55879.2 49050.1 lineto
55935.5 49106.3 lineto
56048 49162.6 lineto
stroke
newpath
56947.8 47981.5 moveto
56947.8 48768.9 lineto
stroke
newpath
56947.8 48656.4 moveto
57004.1 48712.6 lineto
57116.6 48768.9 lineto
57285.3 48768.9 lineto
57397.8 48712.6 lineto
57454 48600.1 lineto
57454 47981.5 lineto
stroke
newpath
57454 48600.1 moveto
57510.3 48712.6 lineto
57622.8 48768.9 lineto
57791.5 48768.9 lineto
57904 48712.6 lineto
57960.2 48600.1 lineto
57960.2 47981.5 lineto
stroke
newpath
58522.6 47981.5 moveto
58522.6 48768.9 lineto
stroke
newpath
58522.6 48656.4 moveto
58578.9 48712.6 lineto
58691.4 48768.9 lineto
58860.1 48768.9 lineto
58972.6 48712.6 lineto
59028.8 48600.1 lineto
59028.8 47981.5 lineto
stroke
newpath
59028.8 48600.1 moveto
59085.1 48712.6 lineto
59197.6 48768.9 lineto
59366.3 48768.9 lineto
59478.8 48712.6 lineto
59535 48600.1 lineto
59535 47981.5 lineto
stroke
newpath
61841 49218.8 moveto
60828.6 47700.2 lineto
stroke
newpath
63359.5 49162.6 moveto
63472 49162.6 lineto
63584.5 49106.3 lineto
63640.8 49050.1 lineto
63697 48937.6 lineto
63753.2 48712.6 lineto
63753.2 48431.4 lineto
63697 48206.4 lineto
63640.8 48093.9 lineto
63584.5 48037.7 lineto
63472 47981.5 lineto
63359.5 47981.5 lineto
63247.1 48037.7 lineto
63190.8 48093.9 lineto
63134.6 48206.4 lineto
63078.3 48431.4 lineto
63078.3 48712.6 lineto
63134.6 48937.6 lineto
63190.8 49050.1 lineto
63247.1 49106.3 lineto
63359.5 49162.6 lineto
stroke
newpath
64259.4 48093.9 moveto
64315.7 48037.7 lineto
64259.4 47981.5 lineto
64203.2 48037.7 lineto
64259.4 48093.9 lineto
64259.4 47981.5 lineto
stroke
newpath
65046.8 49162.6 moveto
65159.3 49162.6 lineto
65271.8 49106.3 lineto
65328 49050.1 lineto
65384.3 48937.6 lineto
65440.5 48712.6 lineto
65440.5 48431.4 lineto
65384.3 48206.4 lineto
65328 48093.9 lineto
65271.8 48037.7 lineto
65159.3 47981.5 lineto
65046.8 47981.5 lineto
64934.3 48037.7 lineto
64878.1 48093.9 lineto
64821.9 48206.4 lineto
64765.6 48431.4 lineto
64765.6 48712.6 lineto
64821.9 48937.6 lineto
64878.1 49050.1 lineto
64934.3 49106.3 lineto
65046.8 49162.6 lineto
stroke
newpath
66171.7 49162.6 moveto
66284.2 49162.6 lineto
66396.7 49106.3 lineto
66452.9 49050.1 lineto
66509.1 48937.6 lineto
66565.4 48712.6 lineto
66565.4 48431.4 lineto
66509.1 48206.4 lineto
66452.9 48093.9 lineto
66396.7 48037.7 lineto
66284.2 47981.5 lineto
66171.7 47981.5 lineto
66059.2 48037.7 lineto
66003 48093.9 lineto
65946.7 48206.4 lineto
65890.5 48431.4 lineto
65890.5 48712.6 lineto
65946.7 48937.6 lineto
66003 49050.1 lineto
66059.2 49106.3 lineto
66171.7 49162.6 lineto
stroke
newpath
66959.1 49162.6 moveto
67746.5 49162.6 lineto
67240.3 47981.5 lineto
stroke
newpath
68252.7 47981.5 moveto
68477.7 47981.5 lineto
68590.1 48037.7 lineto
68646.4 48093.9 lineto
68758.9 48262.7 lineto
68815.1 48487.6 lineto
68815.1 48937.6 lineto
68758.9 49050.1 lineto
68702.6 49106.3 lineto
68590.1 49162.6 lineto
68365.2 49162.6 lineto
68252.7 49106.3 lineto
68196.4 49050.1 lineto
68140.2 48937.6 lineto
68140.2 48656.4 lineto
68196.4 48543.9 lineto
68252.7 48487.6 lineto
68365.2 48431.4 lineto
68590.1 48431.4 lineto
68702.6 48487.6 lineto
68758.9 48543.9 lineto
68815.1 48656.4 lineto
stroke
newpath
69265.1 49162.6 moveto
69265.1 48937.6 lineto
stroke
newpath
69715 49162.6 moveto
69715 48937.6 lineto
stroke
newpath
71458.5 47531.5 moveto
71402.3 47587.8 lineto
71289.8 47756.5 lineto
71233.6 47869 lineto
71177.3 48037.7 lineto
71121.1 48318.9 lineto
71121.1 48543.9 lineto
71177.3 48825.1 lineto
71233.6 48993.8 lineto
71289.8 49106.3 lineto
71402.3 49275 lineto
71458.5 49331.3 lineto
stroke
newpath
72470.9 49162.6 moveto
71908.5 49162.6 lineto
71852.2 48600.1 lineto
71908.5 48656.4 lineto
72021 48712.6 lineto
72302.2 48712.6 lineto
72414.7 48656.4 lineto
72470.9 48600.1 lineto
72527.1 48487.6 lineto
72527.1 48206.4 lineto
72470.9 48093.9 lineto
72414.7 48037.7 lineto
72302.2 47981.5 lineto
72021 47981.5 lineto
71908.5 48037.7 lineto
71852.2 48093.9 lineto
stroke
newpath
72920.8 49162.6 moveto
73652 49162.6 lineto
73258.3 48712.6 lineto
73427 48712.6 lineto
73539.5 48656.4 lineto
73595.8 48600.1 lineto
73652 48487.6 lineto
73652 48206.4 lineto
73595.8 48093.9 lineto
73539.5 48037.7 lineto
73427 47981.5 lineto
73089.6 47981.5 lineto
72977.1 48037.7 lineto
72920.8 48093.9 lineto
stroke
newpath
75058.1 47981.5 moveto
75058.1 49162.6 lineto
stroke
newpath
75564.3 47981.5 moveto
75564.3 48600.1 lineto
75508 48712.6 lineto
75395.5 48768.9 lineto
75226.8 48768.9 lineto
75114.3 48712.6 lineto
75058.1 48656.4 lineto
stroke
newpath
76295.4 47981.5 moveto
76182.9 48037.7 lineto
76126.7 48093.9 lineto
76070.5 48206.4 lineto
76070.5 48543.9 lineto
76126.7 48656.4 lineto
76182.9 48712.6 lineto
76295.4 48768.9 lineto
76464.2 48768.9 lineto
76576.6 48712.6 lineto
76632.9 48656.4 lineto
76689.1 48543.9 lineto
76689.1 48206.4 lineto
76632.9 48093.9 lineto
76576.6 48037.7 lineto
76464.2 47981.5 lineto
76295.4 47981.5 lineto
stroke
newpath
77364 47981.5 moveto
77251.6 48037.7 lineto
77195.3 48150.2 lineto
77195.3 49162.6 lineto
stroke
newpath
78263.9 48037.7 moveto
78151.4 47981.5 lineto
77926.5 47981.5 lineto
77814 48037.7 lineto
77757.7 48150.2 lineto
77757.7 48600.1 lineto
77814 48712.6 lineto
77926.5 48768.9 lineto
78151.4 48768.9 lineto
78263.9 48712.6 lineto
78320.2 48600.1 lineto
78320.2 48487.6 lineto
77757.7 48375.2 lineto
stroke
newpath
78770.1 48037.7 moveto
78882.6 47981.5 lineto
79107.6 47981.5 lineto
79220.1 48037.7 lineto
79276.3 48150.2 lineto
79276.3 48206.4 lineto
79220.1 48318.9 lineto
79107.6 48375.2 lineto
78938.8 48375.2 lineto
78826.4 48431.4 lineto
78770.1 48543.9 lineto
78770.1 48600.1 lineto
78826.4 48712.6 lineto
78938.8 48768.9 lineto
79107.6 48768.9 lineto
79220.1 48712.6 lineto
stroke
newpath
79670 47531.5 moveto
79726.2 47587.8 lineto
79838.7 47756.5 lineto
79895 47869 lineto
79951.2 48037.7 lineto
80007.5 48318.9 lineto
80007.5 48543.9 lineto
79951.2 48825.1 lineto
79895 48993.8 lineto
79838.7 49106.3 lineto
79726.2 49275 lineto
79670 49331.3 lineto
stroke
showpage
grestore
%%EOF
