%!PS-Adobe-3.0
%%Creator: PCBNEW
%%CreationDate: Sun Sep 26 20:47:42 2021
%%Title: /home/suhas/hello/msc/fpga-on-usbport/hardware/gerberfiles/fpga-on-usbport-NPTH-drl_map.ps
%%Pages: 1
%%PageOrder: Ascend
%%BoundingBox: 0 0 596 842
%%DocumentMedia: A4 595 842 0 () ()
%%Orientation: Landscape
%%EndComments
%%BeginProlog
/line { newpath moveto lineto stroke } bind def
/cir0 { newpath 0 360 arc stroke } bind def
/cir1 { newpath 0 360 arc gsave fill grestore stroke } bind def
/cir2 { newpath 0 360 arc gsave fill grestore stroke } bind def
/arc0 { newpath arc stroke } bind def
/arc1 { newpath 4 index 4 index moveto arc closepath gsave fill
    grestore stroke } bind def
/arc2 { newpath 4 index 4 index moveto arc closepath gsave fill
    grestore stroke } bind def
/poly0 { stroke } bind def
/poly1 { closepath gsave fill grestore stroke } bind def
/poly2 { closepath gsave fill grestore stroke } bind def
/rect0 { rectstroke } bind def
/rect1 { rectfill } bind def
/rect2 { rectfill } bind def
/linemode0 { 0 setlinecap 0 setlinejoin 0 setlinewidth } bind def
/linemode1 { 1 setlinecap 1 setlinejoin } bind def
/dashedline { [200] 100 setdash } bind def
/solidline { [] 0 setdash } bind def
/phantomshow { moveto
    /KicadFont findfont 0.000001 scalefont setfont
    show } bind def
/textshow { gsave
    findfont exch scalefont setfont concat 1 scale 0 0 moveto show
    } bind def
/reencodefont {
  findfont dup length dict begin
  { 1 index /FID ne
    { def }
    { pop pop } ifelse
  } forall
  /Encoding ISOLatin1Encoding def
  currentdict
  end } bind def
/KicadFont /Helvetica reencodefont definefont pop
/KicadFont-Bold /Helvetica-Bold reencodefont definefont pop
/KicadFont-Oblique /Helvetica-Oblique reencodefont definefont pop
/KicadFont-BoldOblique /Helvetica-BoldOblique reencodefont definefont pop
%%EndProlog
%%Page: 1 1
%%BeginPageSetup
gsave
0.0072 0.0072 scale
linemode1
82680 0 translate 90 rotate
150 setlinewidth
%%EndPageSetup
0 0 0 setrgbcolor
11.811 setlinewidth
64606.7 56872.1 708.661 180 360 arc0
0 0 0 setrgbcolor
64606.7 58879.9 708.661 -0 180 arc0
0 0 0 setrgbcolor
63898.1 57876 1003.94 -270 -90 arc0
0 0 0 setrgbcolor
59.0551 setlinewidth
63396.1 52324.8 944.882 -0 180 arc0
0 0 0 setrgbcolor
newpath
64341 52324.8 moveto
65551.6 52324.8 lineto
stroke
0 0 0 setrgbcolor
11.811 setlinewidth
newpath
65315.4 58879.9 moveto
65315.4 56872.1 lineto
stroke
0 0 0 setrgbcolor
59.0551 setlinewidth
51378.4 62836.6 590.551 90 180 arc0
0 0 0 setrgbcolor
51378.4 52915.4 590.551 -180 -90 arc0
0 0 0 setrgbcolor
newpath
50787.8 62836.6 moveto
50787.8 52915.4 lineto
stroke
0 0 0 setrgbcolor
newpath
65551.6 63427.2 moveto
51378.4 63427.2 lineto
stroke
0 0 0 setrgbcolor
newpath
51378.4 52324.8 moveto
62451.2 52324.8 lineto
stroke
0 0 0 setrgbcolor
newpath
66142.2 57876 moveto
66142.2 58029.5 lineto
stroke
0 0 0 setrgbcolor
newpath
66142.2 58029.5 moveto
66142.2 58194.9 lineto
stroke
0 0 0 setrgbcolor
newpath
66142.2 58194.9 moveto
66142.2 58348.4 lineto
stroke
0 0 0 setrgbcolor
newpath
66142.2 58348.4 moveto
66142.2 58513.8 lineto
stroke
0 0 0 setrgbcolor
newpath
66142.2 58513.8 moveto
66130.4 58667.3 lineto
stroke
0 0 0 setrgbcolor
newpath
66130.4 58667.3 moveto
66130.4 58832.7 lineto
stroke
0 0 0 setrgbcolor
newpath
66130.4 58832.7 moveto
66130.4 58986.2 lineto
stroke
0 0 0 setrgbcolor
newpath
66130.4 58986.2 moveto
66118.5 59139.8 lineto
stroke
0 0 0 setrgbcolor
newpath
66118.5 59139.8 moveto
66118.5 59305.1 lineto
stroke
0 0 0 setrgbcolor
newpath
66118.5 59305.1 moveto
66106.7 59458.7 lineto
stroke
0 0 0 setrgbcolor
newpath
66106.7 59458.7 moveto
66094.9 59612.2 lineto
stroke
0 0 0 setrgbcolor
newpath
66094.9 59612.2 moveto
66094.9 59765.8 lineto
stroke
0 0 0 setrgbcolor
newpath
66094.9 59765.8 moveto
66083.1 59919.3 lineto
stroke
0 0 0 setrgbcolor
newpath
66083.1 59919.3 moveto
66071.3 60061 lineto
stroke
0 0 0 setrgbcolor
newpath
66071.3 60061 moveto
66059.5 60214.6 lineto
stroke
0 0 0 setrgbcolor
newpath
66059.5 60214.6 moveto
66047.7 60356.3 lineto
stroke
0 0 0 setrgbcolor
newpath
66047.7 60356.3 moveto
66035.9 60509.9 lineto
stroke
0 0 0 setrgbcolor
newpath
66035.9 60509.9 moveto
66024.1 60651.6 lineto
stroke
0 0 0 setrgbcolor
newpath
66024.1 60651.6 moveto
66012.2 60793.3 lineto
stroke
0 0 0 setrgbcolor
newpath
66012.2 60793.3 moveto
66000.4 60935.1 lineto
stroke
0 0 0 setrgbcolor
newpath
66000.4 60935.1 moveto
65988.6 61076.8 lineto
stroke
0 0 0 setrgbcolor
newpath
65988.6 61076.8 moveto
65976.8 61218.5 lineto
stroke
0 0 0 setrgbcolor
newpath
65976.8 61218.5 moveto
65953.2 61348.4 lineto
stroke
0 0 0 setrgbcolor
newpath
65953.2 61348.4 moveto
65941.4 61490.2 lineto
stroke
0 0 0 setrgbcolor
newpath
65941.4 61490.2 moveto
65929.6 61620.1 lineto
stroke
0 0 0 setrgbcolor
newpath
65929.6 61620.1 moveto
65905.9 61750 lineto
stroke
0 0 0 setrgbcolor
newpath
65905.9 61750 moveto
65894.1 61868.1 lineto
stroke
0 0 0 setrgbcolor
newpath
65894.1 61868.1 moveto
65870.5 61998 lineto
stroke
0 0 0 setrgbcolor
newpath
65870.5 61998 moveto
65858.7 62116.2 lineto
stroke
0 0 0 setrgbcolor
newpath
65858.7 62116.2 moveto
65835.1 62234.3 lineto
stroke
0 0 0 setrgbcolor
newpath
65835.1 62234.3 moveto
65811.5 62352.4 lineto
stroke
0 0 0 setrgbcolor
newpath
65811.5 62352.4 moveto
65799.6 62470.5 lineto
stroke
0 0 0 setrgbcolor
newpath
65799.6 62470.5 moveto
65776 62576.8 lineto
stroke
0 0 0 setrgbcolor
newpath
65776 62576.8 moveto
65752.4 62694.9 lineto
stroke
0 0 0 setrgbcolor
newpath
65752.4 62694.9 moveto
65728.8 62789.4 lineto
stroke
0 0 0 setrgbcolor
newpath
65728.8 62789.4 moveto
65705.2 62895.7 lineto
stroke
0 0 0 setrgbcolor
newpath
65705.2 62895.7 moveto
65693.3 63002 lineto
stroke
0 0 0 setrgbcolor
newpath
65693.3 63002 moveto
65669.7 63096.5 lineto
stroke
0 0 0 setrgbcolor
newpath
65669.7 63096.5 moveto
65646.1 63191 lineto
stroke
0 0 0 setrgbcolor
newpath
65646.1 63191 moveto
65622.5 63273.6 lineto
stroke
0 0 0 setrgbcolor
newpath
65622.5 63273.6 moveto
65587 63368.1 lineto
stroke
0 0 0 setrgbcolor
newpath
65587 63368.1 moveto
65551.6 63427.2 lineto
stroke
0 0 0 setrgbcolor
newpath
65551.6 52324.8 moveto
65587 52383.9 lineto
stroke
0 0 0 setrgbcolor
newpath
65587 52383.9 moveto
65622.5 52478.4 lineto
stroke
0 0 0 setrgbcolor
newpath
65622.5 52478.4 moveto
65646.1 52561 lineto
stroke
0 0 0 setrgbcolor
newpath
65646.1 52561 moveto
65669.7 52655.5 lineto
stroke
0 0 0 setrgbcolor
newpath
65669.7 52655.5 moveto
65693.3 52750 lineto
stroke
0 0 0 setrgbcolor
newpath
65693.3 52750 moveto
65705.2 52856.3 lineto
stroke
0 0 0 setrgbcolor
newpath
65705.2 52856.3 moveto
65728.8 52962.6 lineto
stroke
0 0 0 setrgbcolor
newpath
65728.8 52962.6 moveto
65752.4 53057.1 lineto
stroke
0 0 0 setrgbcolor
newpath
65752.4 53057.1 moveto
65776 53175.2 lineto
stroke
0 0 0 setrgbcolor
newpath
65776 53175.2 moveto
65799.6 53281.5 lineto
stroke
0 0 0 setrgbcolor
newpath
65799.6 53281.5 moveto
65811.5 53399.6 lineto
stroke
0 0 0 setrgbcolor
newpath
65811.5 53399.6 moveto
65835.1 53517.7 lineto
stroke
0 0 0 setrgbcolor
newpath
65835.1 53517.7 moveto
65858.7 53635.8 lineto
stroke
0 0 0 setrgbcolor
newpath
65858.7 53635.8 moveto
65870.5 53754 lineto
stroke
0 0 0 setrgbcolor
newpath
65870.5 53754 moveto
65894.1 53883.9 lineto
stroke
0 0 0 setrgbcolor
newpath
65894.1 53883.9 moveto
65905.9 54002 lineto
stroke
0 0 0 setrgbcolor
newpath
65905.9 54002 moveto
65929.6 54131.9 lineto
stroke
0 0 0 setrgbcolor
newpath
65929.6 54131.9 moveto
65941.4 54261.8 lineto
stroke
0 0 0 setrgbcolor
newpath
65941.4 54261.8 moveto
65953.2 54403.6 lineto
stroke
0 0 0 setrgbcolor
newpath
65953.2 54403.6 moveto
65976.8 54533.5 lineto
stroke
0 0 0 setrgbcolor
newpath
65976.8 54533.5 moveto
65988.6 54675.2 lineto
stroke
0 0 0 setrgbcolor
newpath
65988.6 54675.2 moveto
66000.4 54816.9 lineto
stroke
0 0 0 setrgbcolor
newpath
66000.4 54816.9 moveto
66012.2 54958.7 lineto
stroke
0 0 0 setrgbcolor
newpath
66012.2 54958.7 moveto
66024.1 55100.4 lineto
stroke
0 0 0 setrgbcolor
newpath
66024.1 55100.4 moveto
66035.9 55242.1 lineto
stroke
0 0 0 setrgbcolor
newpath
66035.9 55242.1 moveto
66047.7 55395.7 lineto
stroke
0 0 0 setrgbcolor
newpath
66047.7 55395.7 moveto
66059.5 55537.4 lineto
stroke
0 0 0 setrgbcolor
newpath
66059.5 55537.4 moveto
66071.3 55691 lineto
stroke
0 0 0 setrgbcolor
newpath
66071.3 55691 moveto
66083.1 55832.7 lineto
stroke
0 0 0 setrgbcolor
newpath
66083.1 55832.7 moveto
66094.9 55986.2 lineto
stroke
0 0 0 setrgbcolor
newpath
66094.9 55986.2 moveto
66094.9 56139.8 lineto
stroke
0 0 0 setrgbcolor
newpath
66094.9 56139.8 moveto
66106.7 56293.3 lineto
stroke
0 0 0 setrgbcolor
newpath
66106.7 56293.3 moveto
66118.5 56446.9 lineto
stroke
0 0 0 setrgbcolor
newpath
66118.5 56446.9 moveto
66118.5 56612.2 lineto
stroke
0 0 0 setrgbcolor
newpath
66118.5 56612.2 moveto
66130.4 56765.8 lineto
stroke
0 0 0 setrgbcolor
newpath
66130.4 56765.8 moveto
66130.4 56919.3 lineto
stroke
0 0 0 setrgbcolor
newpath
66130.4 56919.3 moveto
66130.4 57084.7 lineto
stroke
0 0 0 setrgbcolor
newpath
66130.4 57084.7 moveto
66142.2 57238.2 lineto
stroke
0 0 0 setrgbcolor
newpath
66142.2 57238.2 moveto
66142.2 57403.6 lineto
stroke
0 0 0 setrgbcolor
newpath
66142.2 57403.6 moveto
66142.2 57557.1 lineto
stroke
0 0 0 setrgbcolor
newpath
66142.2 57557.1 moveto
66142.2 57722.5 lineto
stroke
0 0 0 setrgbcolor
newpath
66142.2 57722.5 moveto
66142.2 57876 lineto
stroke
78.7394 setlinewidth
118.11 setlinewidth
0 0 0 setrgbcolor
0 0 0 setrgbcolor
newpath
51886 50461.8 moveto
51886 51642.9 lineto
52167.2 51642.9 lineto
52335.9 51586.6 lineto
52448.4 51474.1 lineto
52504.7 51361.7 lineto
52560.9 51136.7 lineto
52560.9 50968 lineto
52504.7 50743 lineto
52448.4 50630.5 lineto
52335.9 50518 lineto
52167.2 50461.8 lineto
51886 50461.8 lineto
stroke
newpath
53067.1 50461.8 moveto
53067.1 51249.2 lineto
stroke
newpath
53067.1 51024.2 moveto
53123.3 51136.7 lineto
53179.6 51192.9 lineto
53292.1 51249.2 lineto
53404.5 51249.2 lineto
stroke
newpath
53798.2 50461.8 moveto
53798.2 51249.2 lineto
stroke
newpath
53798.2 51642.9 moveto
53742 51586.6 lineto
53798.2 51530.4 lineto
53854.5 51586.6 lineto
53798.2 51642.9 lineto
53798.2 51530.4 lineto
stroke
newpath
54529.4 50461.8 moveto
54416.9 50518 lineto
54360.7 50630.5 lineto
54360.7 51642.9 lineto
stroke
newpath
55148.1 50461.8 moveto
55035.6 50518 lineto
54979.3 50630.5 lineto
54979.3 51642.9 lineto
stroke
newpath
56497.9 50461.8 moveto
56497.9 51642.9 lineto
56891.6 50799.2 lineto
57285.3 51642.9 lineto
57285.3 50461.8 lineto
stroke
newpath
58353.9 50461.8 moveto
58353.9 51080.4 lineto
58297.7 51192.9 lineto
58185.2 51249.2 lineto
57960.2 51249.2 lineto
57847.7 51192.9 lineto
stroke
newpath
58353.9 50518 moveto
58241.4 50461.8 lineto
57960.2 50461.8 lineto
57847.7 50518 lineto
57791.5 50630.5 lineto
57791.5 50743 lineto
57847.7 50855.5 lineto
57960.2 50911.7 lineto
58241.4 50911.7 lineto
58353.9 50968 lineto
stroke
newpath
58916.3 51249.2 moveto
58916.3 50068.1 lineto
stroke
newpath
58916.3 51192.9 moveto
59028.8 51249.2 lineto
59253.8 51249.2 lineto
59366.3 51192.9 lineto
59422.5 51136.7 lineto
59478.8 51024.2 lineto
59478.8 50686.7 lineto
59422.5 50574.3 lineto
59366.3 50518 lineto
59253.8 50461.8 lineto
59028.8 50461.8 lineto
58916.3 50518 lineto
stroke
newpath
59985 50574.3 moveto
60041.2 50518 lineto
59985 50461.8 lineto
59928.7 50518 lineto
59985 50574.3 lineto
59985 50461.8 lineto
stroke
newpath
59985 51192.9 moveto
60041.2 51136.7 lineto
59985 51080.4 lineto
59928.7 51136.7 lineto
59985 51192.9 lineto
59985 51080.4 lineto
stroke
showpage
grestore
%%EOF
