G04 #@! TF.GenerationSoftware,KiCad,Pcbnew,5.1.10-88a1d61d58~90~ubuntu20.04.1*
G04 #@! TF.CreationDate,2021-09-26T20:47:57+05:30*
G04 #@! TF.ProjectId,fpga-on-usbport,66706761-2d6f-46e2-9d75-7362706f7274,rev?*
G04 #@! TF.SameCoordinates,Original*
G04 #@! TF.FileFunction,Other,Comment*
%FSLAX45Y45*%
G04 Gerber Fmt 4.5, Leading zero omitted, Abs format (unit mm)*
G04 Created by KiCad (PCBNEW 5.1.10-88a1d61d58~90~ubuntu20.04.1) date 2021-09-26 20:47:57*
%MOMM*%
%LPD*%
G01*
G04 APERTURE LIST*
%ADD10C,0.050000*%
%ADD11C,0.035000*%
%ADD12C,0.037500*%
G04 APERTURE END LIST*
D10*
X1585000Y-2185000D02*
X1635000Y-2135000D01*
X1585000Y-2185000D02*
X1535000Y-2135000D01*
X1585000Y-1985000D02*
X1585000Y-2185000D01*
X1535000Y-2035000D02*
X1585000Y-1985000D01*
X1585000Y-1985000D02*
X1635000Y-2035000D01*
X1585000Y-1985000D02*
X1535000Y-2035000D01*
X1635000Y-2035000D02*
X1585000Y-1985000D01*
X1585000Y-2385000D02*
X1635000Y-2335000D01*
X1585000Y-2385000D02*
X1535000Y-2335000D01*
X1585000Y-2185000D02*
X1585000Y-2385000D01*
X1685000Y-2185000D02*
X1485000Y-2185000D01*
X1585000Y-2185000D02*
X1635000Y-2235000D01*
X1535000Y-2235000D02*
X1585000Y-2185000D01*
X1585000Y-2185000D02*
X1535000Y-2235000D01*
X1635000Y-2235000D02*
X1585000Y-2185000D01*
X1685000Y-2735000D02*
X1485000Y-2735000D01*
X1685000Y-2385000D02*
X1485000Y-2385000D01*
X1635000Y-2435000D02*
X1585000Y-2385000D01*
X1585000Y-2385000D02*
X1635000Y-2435000D01*
X1535000Y-2435000D02*
X1585000Y-2385000D01*
X1585000Y-2385000D02*
X1535000Y-2435000D01*
X1585000Y-2735000D02*
X1535000Y-2685000D01*
X1585000Y-2385000D02*
X1585000Y-2735000D01*
X1585000Y-2735000D02*
X1635000Y-2685000D01*
X1685000Y-1985000D02*
X1485000Y-1985000D01*
X1685000Y-1635000D02*
X1485000Y-1635000D01*
X1585000Y-1985000D02*
X1535000Y-1935000D01*
X1585000Y-1635000D02*
X1535000Y-1685000D01*
X1635000Y-1685000D02*
X1585000Y-1635000D01*
X1535000Y-1685000D02*
X1585000Y-1635000D01*
X1585000Y-1635000D02*
X1635000Y-1685000D01*
X1585000Y-1635000D02*
X1585000Y-1985000D01*
X1585000Y-1985000D02*
X1635000Y-1935000D01*
X3085000Y-2685000D02*
X3035000Y-2735000D01*
X3035000Y-2735000D02*
X2985000Y-2685000D01*
X2985000Y-2685000D02*
X3035000Y-2735000D01*
X3035000Y-2735000D02*
X3085000Y-2685000D01*
X2885000Y-2735000D02*
X3085000Y-2735000D01*
X3035000Y-1635000D02*
X3085000Y-1685000D01*
X3035000Y-1635000D02*
X2985000Y-1685000D01*
X2885000Y-1635000D02*
X3085000Y-1635000D01*
X3035000Y-2735000D02*
X3035000Y-1635000D01*
X2885000Y-1635000D02*
X2885000Y-1435000D01*
X2885000Y-1535000D02*
X2835000Y-1485000D01*
X2835000Y-1485000D02*
X2885000Y-1535000D01*
X2885000Y-1535000D02*
X2835000Y-1585000D01*
X2835000Y-1585000D02*
X2885000Y-1535000D01*
X2885000Y-1535000D02*
X1685000Y-1535000D01*
X1685000Y-1535000D02*
X1735000Y-1485000D01*
X1685000Y-1535000D02*
X1735000Y-1585000D01*
X1685000Y-1635000D02*
X1685000Y-1435000D01*
D11*
X1521309Y-1825000D02*
X1521309Y-1816333D01*
X1530833Y-1821000D01*
X1530833Y-1819000D01*
X1532024Y-1817667D01*
X1533214Y-1817000D01*
X1535595Y-1816333D01*
X1541548Y-1816333D01*
X1543928Y-1817000D01*
X1545119Y-1817667D01*
X1546309Y-1819000D01*
X1546309Y-1823000D01*
X1545119Y-1824333D01*
X1543928Y-1825000D01*
X1543928Y-1810333D02*
X1545119Y-1809667D01*
X1546309Y-1810333D01*
X1545119Y-1811000D01*
X1543928Y-1810333D01*
X1546309Y-1810333D01*
X1521309Y-1797000D02*
X1521309Y-1803667D01*
X1533214Y-1804333D01*
X1532024Y-1803667D01*
X1530833Y-1802333D01*
X1530833Y-1799000D01*
X1532024Y-1797667D01*
X1533214Y-1797000D01*
X1535595Y-1796333D01*
X1541548Y-1796333D01*
X1543928Y-1797000D01*
X1545119Y-1797667D01*
X1546309Y-1799000D01*
X1546309Y-1802333D01*
X1545119Y-1803667D01*
X1543928Y-1804333D01*
X1521309Y-1787667D02*
X1521309Y-1786333D01*
X1522500Y-1785000D01*
X1523690Y-1784333D01*
X1526071Y-1783667D01*
X1530833Y-1783000D01*
X1536786Y-1783000D01*
X1541548Y-1783667D01*
X1543928Y-1784333D01*
X1545119Y-1785000D01*
X1546309Y-1786333D01*
X1546309Y-1787667D01*
X1545119Y-1789000D01*
X1543928Y-1789667D01*
X1541548Y-1790333D01*
X1536786Y-1791000D01*
X1530833Y-1791000D01*
X1526071Y-1790333D01*
X1523690Y-1789667D01*
X1522500Y-1789000D01*
X1521309Y-1787667D01*
X1546309Y-1777000D02*
X1529643Y-1777000D01*
X1532024Y-1777000D02*
X1530833Y-1776333D01*
X1529643Y-1775000D01*
X1529643Y-1773000D01*
X1530833Y-1771667D01*
X1533214Y-1771000D01*
X1546309Y-1771000D01*
X1533214Y-1771000D02*
X1530833Y-1770333D01*
X1529643Y-1769000D01*
X1529643Y-1767000D01*
X1530833Y-1765667D01*
X1533214Y-1765000D01*
X1546309Y-1765000D01*
X1546309Y-1758333D02*
X1529643Y-1758333D01*
X1532024Y-1758333D02*
X1530833Y-1757667D01*
X1529643Y-1756333D01*
X1529643Y-1754333D01*
X1530833Y-1753000D01*
X1533214Y-1752333D01*
X1546309Y-1752333D01*
X1533214Y-1752333D02*
X1530833Y-1751667D01*
X1529643Y-1750333D01*
X1529643Y-1748333D01*
X1530833Y-1747000D01*
X1533214Y-1746333D01*
X1546309Y-1746333D01*
D12*
X1523690Y-2127143D02*
X1522500Y-2126429D01*
X1521309Y-2125000D01*
X1521309Y-2121429D01*
X1522500Y-2120000D01*
X1523690Y-2119286D01*
X1526071Y-2118571D01*
X1528452Y-2118571D01*
X1532024Y-2119286D01*
X1546309Y-2127857D01*
X1546309Y-2118571D01*
X1543928Y-2112143D02*
X1545119Y-2111429D01*
X1546309Y-2112143D01*
X1545119Y-2112857D01*
X1543928Y-2112143D01*
X1546309Y-2112143D01*
X1521309Y-2102143D02*
X1521309Y-2100714D01*
X1522500Y-2099286D01*
X1523690Y-2098571D01*
X1526071Y-2097857D01*
X1530833Y-2097143D01*
X1536786Y-2097143D01*
X1541548Y-2097857D01*
X1543928Y-2098571D01*
X1545119Y-2099286D01*
X1546309Y-2100714D01*
X1546309Y-2102143D01*
X1545119Y-2103571D01*
X1543928Y-2104286D01*
X1541548Y-2105000D01*
X1536786Y-2105714D01*
X1530833Y-2105714D01*
X1526071Y-2105000D01*
X1523690Y-2104286D01*
X1522500Y-2103571D01*
X1521309Y-2102143D01*
X1521309Y-2087857D02*
X1521309Y-2086428D01*
X1522500Y-2085000D01*
X1523690Y-2084286D01*
X1526071Y-2083571D01*
X1530833Y-2082857D01*
X1536786Y-2082857D01*
X1541548Y-2083571D01*
X1543928Y-2084286D01*
X1545119Y-2085000D01*
X1546309Y-2086428D01*
X1546309Y-2087857D01*
X1545119Y-2089286D01*
X1543928Y-2090000D01*
X1541548Y-2090714D01*
X1536786Y-2091428D01*
X1530833Y-2091428D01*
X1526071Y-2090714D01*
X1523690Y-2090000D01*
X1522500Y-2089286D01*
X1521309Y-2087857D01*
X1546309Y-2076428D02*
X1529643Y-2076428D01*
X1532024Y-2076428D02*
X1530833Y-2075714D01*
X1529643Y-2074286D01*
X1529643Y-2072143D01*
X1530833Y-2070714D01*
X1533214Y-2070000D01*
X1546309Y-2070000D01*
X1533214Y-2070000D02*
X1530833Y-2069286D01*
X1529643Y-2067857D01*
X1529643Y-2065714D01*
X1530833Y-2064286D01*
X1533214Y-2063571D01*
X1546309Y-2063571D01*
X1546309Y-2056428D02*
X1529643Y-2056428D01*
X1532024Y-2056428D02*
X1530833Y-2055714D01*
X1529643Y-2054286D01*
X1529643Y-2052143D01*
X1530833Y-2050714D01*
X1533214Y-2050000D01*
X1546309Y-2050000D01*
X1533214Y-2050000D02*
X1530833Y-2049286D01*
X1529643Y-2047857D01*
X1529643Y-2045714D01*
X1530833Y-2044286D01*
X1533214Y-2043571D01*
X1546309Y-2043571D01*
X1523690Y-2327143D02*
X1522500Y-2326429D01*
X1521309Y-2325000D01*
X1521309Y-2321429D01*
X1522500Y-2320000D01*
X1523690Y-2319286D01*
X1526071Y-2318571D01*
X1528452Y-2318571D01*
X1532024Y-2319286D01*
X1546309Y-2327857D01*
X1546309Y-2318571D01*
X1543928Y-2312143D02*
X1545119Y-2311429D01*
X1546309Y-2312143D01*
X1545119Y-2312857D01*
X1543928Y-2312143D01*
X1546309Y-2312143D01*
X1521309Y-2302143D02*
X1521309Y-2300714D01*
X1522500Y-2299286D01*
X1523690Y-2298571D01*
X1526071Y-2297857D01*
X1530833Y-2297143D01*
X1536786Y-2297143D01*
X1541548Y-2297857D01*
X1543928Y-2298571D01*
X1545119Y-2299286D01*
X1546309Y-2300714D01*
X1546309Y-2302143D01*
X1545119Y-2303571D01*
X1543928Y-2304286D01*
X1541548Y-2305000D01*
X1536786Y-2305714D01*
X1530833Y-2305714D01*
X1526071Y-2305000D01*
X1523690Y-2304286D01*
X1522500Y-2303571D01*
X1521309Y-2302143D01*
X1521309Y-2287857D02*
X1521309Y-2286429D01*
X1522500Y-2285000D01*
X1523690Y-2284286D01*
X1526071Y-2283571D01*
X1530833Y-2282857D01*
X1536786Y-2282857D01*
X1541548Y-2283571D01*
X1543928Y-2284286D01*
X1545119Y-2285000D01*
X1546309Y-2286429D01*
X1546309Y-2287857D01*
X1545119Y-2289286D01*
X1543928Y-2290000D01*
X1541548Y-2290714D01*
X1536786Y-2291429D01*
X1530833Y-2291429D01*
X1526071Y-2290714D01*
X1523690Y-2290000D01*
X1522500Y-2289286D01*
X1521309Y-2287857D01*
X1546309Y-2276429D02*
X1529643Y-2276429D01*
X1532024Y-2276429D02*
X1530833Y-2275714D01*
X1529643Y-2274286D01*
X1529643Y-2272143D01*
X1530833Y-2270714D01*
X1533214Y-2270000D01*
X1546309Y-2270000D01*
X1533214Y-2270000D02*
X1530833Y-2269286D01*
X1529643Y-2267857D01*
X1529643Y-2265714D01*
X1530833Y-2264286D01*
X1533214Y-2263571D01*
X1546309Y-2263571D01*
X1546309Y-2256429D02*
X1529643Y-2256429D01*
X1532024Y-2256429D02*
X1530833Y-2255714D01*
X1529643Y-2254286D01*
X1529643Y-2252143D01*
X1530833Y-2250714D01*
X1533214Y-2250000D01*
X1546309Y-2250000D01*
X1533214Y-2250000D02*
X1530833Y-2249286D01*
X1529643Y-2247857D01*
X1529643Y-2245714D01*
X1530833Y-2244286D01*
X1533214Y-2243571D01*
X1546309Y-2243571D01*
D11*
X1521309Y-2575000D02*
X1521309Y-2566333D01*
X1530833Y-2571000D01*
X1530833Y-2569000D01*
X1532024Y-2567667D01*
X1533214Y-2567000D01*
X1535595Y-2566333D01*
X1541548Y-2566333D01*
X1543928Y-2567000D01*
X1545119Y-2567667D01*
X1546309Y-2569000D01*
X1546309Y-2573000D01*
X1545119Y-2574333D01*
X1543928Y-2575000D01*
X1543928Y-2560333D02*
X1545119Y-2559667D01*
X1546309Y-2560333D01*
X1545119Y-2561000D01*
X1543928Y-2560333D01*
X1546309Y-2560333D01*
X1521309Y-2547000D02*
X1521309Y-2553667D01*
X1533214Y-2554333D01*
X1532024Y-2553667D01*
X1530833Y-2552333D01*
X1530833Y-2549000D01*
X1532024Y-2547667D01*
X1533214Y-2547000D01*
X1535595Y-2546333D01*
X1541548Y-2546333D01*
X1543928Y-2547000D01*
X1545119Y-2547667D01*
X1546309Y-2549000D01*
X1546309Y-2552333D01*
X1545119Y-2553667D01*
X1543928Y-2554333D01*
X1521309Y-2537667D02*
X1521309Y-2536333D01*
X1522500Y-2535000D01*
X1523690Y-2534333D01*
X1526071Y-2533667D01*
X1530833Y-2533000D01*
X1536786Y-2533000D01*
X1541548Y-2533667D01*
X1543928Y-2534333D01*
X1545119Y-2535000D01*
X1546309Y-2536333D01*
X1546309Y-2537667D01*
X1545119Y-2539000D01*
X1543928Y-2539667D01*
X1541548Y-2540333D01*
X1536786Y-2541000D01*
X1530833Y-2541000D01*
X1526071Y-2540333D01*
X1523690Y-2539667D01*
X1522500Y-2539000D01*
X1521309Y-2537667D01*
X1546309Y-2527000D02*
X1529643Y-2527000D01*
X1532024Y-2527000D02*
X1530833Y-2526333D01*
X1529643Y-2525000D01*
X1529643Y-2523000D01*
X1530833Y-2521667D01*
X1533214Y-2521000D01*
X1546309Y-2521000D01*
X1533214Y-2521000D02*
X1530833Y-2520333D01*
X1529643Y-2519000D01*
X1529643Y-2517000D01*
X1530833Y-2515667D01*
X1533214Y-2515000D01*
X1546309Y-2515000D01*
X1546309Y-2508333D02*
X1529643Y-2508333D01*
X1532024Y-2508333D02*
X1530833Y-2507667D01*
X1529643Y-2506333D01*
X1529643Y-2504333D01*
X1530833Y-2503000D01*
X1533214Y-2502333D01*
X1546309Y-2502333D01*
X1533214Y-2502333D02*
X1530833Y-2501667D01*
X1529643Y-2500333D01*
X1529643Y-2498333D01*
X1530833Y-2497000D01*
X1533214Y-2496333D01*
X1546309Y-2496333D01*
D10*
X3030238Y-2506429D02*
X3030238Y-2563571D01*
X3030238Y-2535000D02*
X2930238Y-2535000D01*
X2944524Y-2544524D01*
X2954048Y-2554048D01*
X2958809Y-2563571D01*
X3030238Y-2411190D02*
X3030238Y-2468333D01*
X3030238Y-2439762D02*
X2930238Y-2439762D01*
X2944524Y-2449286D01*
X2954048Y-2458810D01*
X2958809Y-2468333D01*
X3020714Y-2368333D02*
X3025476Y-2363571D01*
X3030238Y-2368333D01*
X3025476Y-2373095D01*
X3020714Y-2368333D01*
X3030238Y-2368333D01*
X2930238Y-2301667D02*
X2930238Y-2292143D01*
X2935000Y-2282619D01*
X2939762Y-2277857D01*
X2949286Y-2273095D01*
X2968333Y-2268333D01*
X2992143Y-2268333D01*
X3011190Y-2273095D01*
X3020714Y-2277857D01*
X3025476Y-2282619D01*
X3030238Y-2292143D01*
X3030238Y-2301667D01*
X3025476Y-2311190D01*
X3020714Y-2315952D01*
X3011190Y-2320714D01*
X2992143Y-2325476D01*
X2968333Y-2325476D01*
X2949286Y-2320714D01*
X2939762Y-2315952D01*
X2935000Y-2311190D01*
X2930238Y-2301667D01*
X2930238Y-2206429D02*
X2930238Y-2196905D01*
X2935000Y-2187381D01*
X2939762Y-2182619D01*
X2949286Y-2177857D01*
X2968333Y-2173095D01*
X2992143Y-2173095D01*
X3011190Y-2177857D01*
X3020714Y-2182619D01*
X3025476Y-2187381D01*
X3030238Y-2196905D01*
X3030238Y-2206429D01*
X3025476Y-2215952D01*
X3020714Y-2220714D01*
X3011190Y-2225476D01*
X2992143Y-2230238D01*
X2968333Y-2230238D01*
X2949286Y-2225476D01*
X2939762Y-2220714D01*
X2935000Y-2215952D01*
X2930238Y-2206429D01*
X3030238Y-2130238D02*
X2963571Y-2130238D01*
X2973095Y-2130238D02*
X2968333Y-2125476D01*
X2963571Y-2115952D01*
X2963571Y-2101667D01*
X2968333Y-2092143D01*
X2977857Y-2087381D01*
X3030238Y-2087381D01*
X2977857Y-2087381D02*
X2968333Y-2082619D01*
X2963571Y-2073095D01*
X2963571Y-2058809D01*
X2968333Y-2049286D01*
X2977857Y-2044524D01*
X3030238Y-2044524D01*
X3030238Y-1996905D02*
X2963571Y-1996905D01*
X2973095Y-1996905D02*
X2968333Y-1992143D01*
X2963571Y-1982619D01*
X2963571Y-1968333D01*
X2968333Y-1958809D01*
X2977857Y-1954048D01*
X3030238Y-1954048D01*
X2977857Y-1954048D02*
X2968333Y-1949286D01*
X2963571Y-1939762D01*
X2963571Y-1925476D01*
X2968333Y-1915952D01*
X2977857Y-1911190D01*
X3030238Y-1911190D01*
X2013571Y-1530238D02*
X1956428Y-1530238D01*
X1985000Y-1530238D02*
X1985000Y-1430238D01*
X1975476Y-1444524D01*
X1965952Y-1454048D01*
X1956428Y-1458809D01*
X2051667Y-1439762D02*
X2056428Y-1435000D01*
X2065952Y-1430238D01*
X2089762Y-1430238D01*
X2099286Y-1435000D01*
X2104048Y-1439762D01*
X2108810Y-1449286D01*
X2108810Y-1458809D01*
X2104048Y-1473095D01*
X2046905Y-1530238D01*
X2108810Y-1530238D01*
X2151667Y-1520714D02*
X2156429Y-1525476D01*
X2151667Y-1530238D01*
X2146905Y-1525476D01*
X2151667Y-1520714D01*
X2151667Y-1530238D01*
X2218333Y-1430238D02*
X2227857Y-1430238D01*
X2237381Y-1435000D01*
X2242143Y-1439762D01*
X2246905Y-1449286D01*
X2251667Y-1468333D01*
X2251667Y-1492143D01*
X2246905Y-1511190D01*
X2242143Y-1520714D01*
X2237381Y-1525476D01*
X2227857Y-1530238D01*
X2218333Y-1530238D01*
X2208810Y-1525476D01*
X2204048Y-1520714D01*
X2199286Y-1511190D01*
X2194524Y-1492143D01*
X2194524Y-1468333D01*
X2199286Y-1449286D01*
X2204048Y-1439762D01*
X2208810Y-1435000D01*
X2218333Y-1430238D01*
X2313571Y-1430238D02*
X2323095Y-1430238D01*
X2332619Y-1435000D01*
X2337381Y-1439762D01*
X2342143Y-1449286D01*
X2346905Y-1468333D01*
X2346905Y-1492143D01*
X2342143Y-1511190D01*
X2337381Y-1520714D01*
X2332619Y-1525476D01*
X2323095Y-1530238D01*
X2313571Y-1530238D01*
X2304048Y-1525476D01*
X2299286Y-1520714D01*
X2294524Y-1511190D01*
X2289762Y-1492143D01*
X2289762Y-1468333D01*
X2294524Y-1449286D01*
X2299286Y-1439762D01*
X2304048Y-1435000D01*
X2313571Y-1430238D01*
X2389762Y-1530238D02*
X2389762Y-1463571D01*
X2389762Y-1473095D02*
X2394524Y-1468333D01*
X2404048Y-1463571D01*
X2418333Y-1463571D01*
X2427857Y-1468333D01*
X2432619Y-1477857D01*
X2432619Y-1530238D01*
X2432619Y-1477857D02*
X2437381Y-1468333D01*
X2446905Y-1463571D01*
X2461190Y-1463571D01*
X2470714Y-1468333D01*
X2475476Y-1477857D01*
X2475476Y-1530238D01*
X2523095Y-1530238D02*
X2523095Y-1463571D01*
X2523095Y-1473095D02*
X2527857Y-1468333D01*
X2537381Y-1463571D01*
X2551667Y-1463571D01*
X2561190Y-1468333D01*
X2565952Y-1477857D01*
X2565952Y-1530238D01*
X2565952Y-1477857D02*
X2570714Y-1468333D01*
X2580238Y-1463571D01*
X2594524Y-1463571D01*
X2604048Y-1468333D01*
X2608810Y-1477857D01*
X2608810Y-1530238D01*
M02*
